<?xml version="1.0" encoding="UTF-8" standalone="no"?>
<!-- Created with Inkscape (http://www.inkscape.org/) -->

<svg
   xmlns:dc="http://purl.org/dc/elements/1.1/"
   xmlns:cc="http://creativecommons.org/ns#"
   xmlns:rdf="http://www.w3.org/1999/02/22-rdf-syntax-ns#"
   xmlns:svg="http://www.w3.org/2000/svg"
   xmlns="http://www.w3.org/2000/svg"
   xmlns:sodipodi="http://sodipodi.sourceforge.net/DTD/sodipodi-0.dtd"
   xmlns:inkscape="http://www.inkscape.org/namespaces/inkscape"
   width="210mm"
   height="297mm"
   viewBox="0 0 210 297"
   version="1.1"
   id="svg415"
   inkscape:version="0.92.3 (2405546, 2018-03-11)"
   sodipodi:docname="LabOrgA5-02.svg">
  <defs
     id="defs409" />
  <sodipodi:namedview
     id="base"
     pagecolor="#ffffff"
     bordercolor="#666666"
     borderopacity="1.0"
     inkscape:pageopacity="0.0"
     inkscape:pageshadow="2"
     inkscape:zoom="1.4"
     inkscape:cx="328.76615"
     inkscape:cy="872.15774"
     inkscape:document-units="mm"
     inkscape:current-layer="layer1"
     showgrid="false"
     inkscape:window-width="1366"
     inkscape:window-height="741"
     inkscape:window-x="0"
     inkscape:window-y="27"
     inkscape:window-maximized="1" />
  <metadata
     id="metadata412">
    <rdf:RDF>
      <cc:Work
         rdf:about="">
        <dc:format>image/svg+xml</dc:format>
        <dc:type
           rdf:resource="http://purl.org/dc/dcmitype/StillImage" />
        <dc:title></dc:title>
      </cc:Work>
    </rdf:RDF>
  </metadata>
  <g
     inkscape:label="Layer 1"
     inkscape:groupmode="layer"
     id="layer1">
    <rect
       style="fill:#00ffff;stroke-width:0.26458332"
       id="rect417"
       width="101.02789"
       height="248.56067"
       x="104.23512"
       y="16.901535" />
    <text
       xml:space="preserve"
       style="font-style:normal;font-weight:normal;font-size:8.97972202px;line-height:1.25;font-family:sans-serif;letter-spacing:0px;word-spacing:0px;fill:#000000;fill-opacity:1;stroke:none;stroke-width:0.56123263"
       x="110.68995"
       y="26.773195"
       id="text421"
       transform="scale(0.97280837,1.0279517)"
       inkscape:export-xdpi="96"
       inkscape:export-ydpi="96"><tspan
         sodipodi:role="line"
         id="tspan419"
         x="110.68995"
         y="26.773195"
         style="stroke-width:0.56123263">000000XXXXXXXXXX</tspan><tspan
         sodipodi:role="line"
         x="110.68995"
         y="37.997849"
         style="stroke-width:0.56123263"
         id="tspan423">111000000XXXXXXX</tspan><tspan
         sodipodi:role="line"
         x="110.68995"
         y="49.2225"
         style="stroke-width:0.56123263"
         id="tspan495">0000000000000101</tspan><tspan
         sodipodi:role="line"
         x="110.68995"
         y="60.447151"
         style="stroke-width:0.56123263"
         id="tspan692">Proxima Instrucao</tspan></text>
    <text
       xml:space="preserve"
       style="font-style:normal;font-weight:normal;font-size:4.23333311px;line-height:1.25;font-family:sans-serif;letter-spacing:0px;word-spacing:0px;fill:#000000;fill-opacity:1;stroke:none;stroke-width:0.26458332"
       x="21.922617"
       y="29.77083"
       id="text427"><tspan
         sodipodi:role="line"
         id="tspan425"
         x="21.922617"
         y="29.77083"
         style="stroke-width:0.26458332">IR = 111000000XXXXXXX</tspan><tspan
         sodipodi:role="line"
         x="21.922617"
         y="35.062496"
         style="stroke-width:0.26458332"
         id="tspan429" /><tspan
         sodipodi:role="line"
         x="21.922617"
         y="40.354164"
         style="stroke-width:0.26458332"
         id="tspan431">PC = 2</tspan><tspan
         sodipodi:role="line"
         x="21.922617"
         y="45.645828"
         style="stroke-width:0.26458332"
         id="tspan497" /><tspan
         sodipodi:role="line"
         x="21.922617"
         y="50.937496"
         style="stroke-width:0.26458332"
         id="tspan499">Perguntas:</tspan><tspan
         sodipodi:role="line"
         x="21.922617"
         y="56.22916"
         style="stroke-width:0.26458332"
         id="tspan501">1) O que tenho que fazer?</tspan><tspan
         sodipodi:role="line"
         x="21.922617"
         y="61.520828"
         style="stroke-width:0.26458332"
         id="tspan503">2) Onde começa?</tspan><tspan
         sodipodi:role="line"
         x="21.922617"
         y="66.812492"
         style="stroke-width:0.26458332"
         id="tspan578">3) Onde Termina?</tspan><tspan
         sodipodi:role="line"
         x="21.922617"
         y="72.104164"
         style="stroke-width:0.26458332"
         id="tspan580">4) Qual é o caminho?</tspan><tspan
         sodipodi:role="line"
         x="21.922617"
         y="77.395828"
         style="stroke-width:0.26458332"
         id="tspan686">Do todos os comandos...</tspan><tspan
         sodipodi:role="line"
         x="21.922617"
         y="82.687492"
         style="stroke-width:0.26458332"
         id="tspan688">5) Acabou??</tspan><tspan
         sodipodi:role="line"
         x="21.922617"
         y="87.979164"
         style="stroke-width:0.26458332"
         id="tspan690">6) E o PC ????????</tspan></text>
    <text
       xml:space="preserve"
       style="font-style:normal;font-weight:normal;font-size:7.840343px;line-height:1.25;font-family:sans-serif;letter-spacing:0px;word-spacing:0px;fill:#000000;fill-opacity:1;stroke:none;stroke-width:0.49002144"
       x="105.92055"
       y="24.118021"
       id="text435"
       transform="scale(0.87307544,1.1453764)"><tspan
         sodipodi:role="line"
         id="tspan433"
         x="105.92055"
         y="24.118021"
         style="stroke-width:0.49002144">0</tspan><tspan
         sodipodi:role="line"
         x="105.92055"
         y="33.918449"
         style="stroke-width:0.49002144"
         id="tspan437">1</tspan><tspan
         sodipodi:role="line"
         x="105.92055"
         y="43.71888"
         style="stroke-width:0.49002144"
         id="tspan439">2</tspan><tspan
         sodipodi:role="line"
         x="105.92055"
         y="53.519306"
         style="stroke-width:0.49002144"
         id="tspan441">3</tspan><tspan
         sodipodi:role="line"
         x="105.92055"
         y="63.319736"
         style="stroke-width:0.49002144"
         id="tspan443">4</tspan><tspan
         sodipodi:role="line"
         x="105.92055"
         y="73.120163"
         style="stroke-width:0.49002144"
         id="tspan445">5</tspan><tspan
         sodipodi:role="line"
         x="105.92055"
         y="82.920593"
         style="stroke-width:0.49002144"
         id="tspan447">6</tspan><tspan
         sodipodi:role="line"
         x="105.92055"
         y="92.721024"
         style="stroke-width:0.49002144"
         id="tspan449">7</tspan><tspan
         sodipodi:role="line"
         x="105.92055"
         y="102.52145"
         style="stroke-width:0.49002144"
         id="tspan451">8</tspan><tspan
         sodipodi:role="line"
         x="105.92055"
         y="112.32188"
         style="stroke-width:0.49002144"
         id="tspan453">9</tspan><tspan
         sodipodi:role="line"
         x="105.92055"
         y="122.12231"
         style="stroke-width:0.49002144"
         id="tspan455">10</tspan><tspan
         sodipodi:role="line"
         x="105.92055"
         y="131.92274"
         style="stroke-width:0.49002144"
         id="tspan457">11</tspan></text>
  </g>
</svg>
