<?xml version="1.0" encoding="UTF-8" standalone="no"?>
<!-- Created with Inkscape (http://www.inkscape.org/) -->

<svg
   width="210mm"
   height="297mm"
   viewBox="0 0 210 297"
   version="1.1"
   id="svg5"
   inkscape:version="1.1 (c4e8f9ed74, 2021-05-24)"
   sodipodi:docname="Arquitetura02.svg"
   xmlns:inkscape="http://www.inkscape.org/namespaces/inkscape"
   xmlns:sodipodi="http://sodipodi.sourceforge.net/DTD/sodipodi-0.dtd"
   xmlns="http://www.w3.org/2000/svg"
   xmlns:svg="http://www.w3.org/2000/svg">
  <sodipodi:namedview
     id="namedview7"
     pagecolor="#ffffff"
     bordercolor="#666666"
     borderopacity="1.0"
     inkscape:pageshadow="2"
     inkscape:pageopacity="0.0"
     inkscape:pagecheckerboard="0"
     inkscape:document-units="mm"
     showgrid="false"
     inkscape:zoom="2.6255406"
     inkscape:rotation="-2"
     inkscape:cx="193.46651"
     inkscape:cy="2241.1873"
     inkscape:window-width="1366"
     inkscape:window-height="699"
     inkscape:window-x="0"
     inkscape:window-y="32"
     inkscape:window-maximized="1"
     inkscape:current-layer="layer1" />
  <defs
     id="defs2" />
  <g
     inkscape:label="Layer 1"
     inkscape:groupmode="layer"
     id="layer1">
    <rect
       style="opacity:0.487628;fill:#ffff00;stroke:#fc0012;stroke-width:0.264583"
       id="rect846"
       width="25.248638"
       height="41.637836"
       x="31.28097"
       y="45.811775" />
    <rect
       style="opacity:0.487628;fill:#ffff00;stroke:#fc0012;stroke-width:0.264583"
       id="rect846-3"
       width="25.248638"
       height="41.637836"
       x="59.480862"
       y="45.762356" />
    <rect
       style="opacity:0.487628;fill:#ffff00;stroke:#fc0012;stroke-width:0.264583"
       id="rect846-6"
       width="25.248638"
       height="41.637836"
       x="88.352013"
       y="45.34063" />
    <rect
       style="opacity:0.487628;fill:#ffff00;stroke:#fc0012;stroke-width:0.264583"
       id="rect846-3-7"
       width="25.248638"
       height="41.637836"
       x="116.55191"
       y="45.29121" />
    <text
       xml:space="preserve"
       style="font-size:7.05556px;line-height:1.25;font-family:sans-serif;stroke-width:0.264583"
       x="13.024103"
       y="42.17136"
       id="text4598"><tspan
         sodipodi:role="line"
         id="tspan4596"
         style="stroke-width:0.264583"
         x="13.024103"
         y="42.17136">64k x 32 bits</tspan></text>
    <path
       style="fill:none;stroke:#000000;stroke-width:0.264583px;stroke-linecap:butt;stroke-linejoin:miter;stroke-opacity:1"
       d="m 39.112028,113.32673 c 0.104275,-0.64504 0.394835,-2.43108 0.435248,-2.76507 0.197998,-1.63643 0.180617,-3.32117 0.577066,-4.90697 0.06707,-0.26827 -0.06706,-0.58683 0,-0.85509 0.156446,-0.62578 0.336918,-1.36082 0.427543,-1.9952 0.03359,-0.23514 -0.02946,-0.47688 0,-0.71257 0.05088,-0.40702 0.234154,-0.87561 0.285031,-1.28263 0.04588,-0.36708 -0.08921,-0.78328 0,-1.140117 0.160504,-0.642025 0.1525,-1.329 0.285027,-1.991635 0.02082,-0.104162 0.09501,-0.190021 0.142515,-0.285031 0.0475,-0.190018 0.114814,-0.376158 0.142516,-0.570058 0.04031,-0.282162 -0.04031,-0.57292 0,-0.855085 0.110662,-0.774634 0.285027,-1.490012 0.285027,-2.267739"
       id="path6889" />
    <path
       style="fill:none;stroke:#000000;stroke-width:0.264583px;stroke-linecap:butt;stroke-linejoin:miter;stroke-opacity:1"
       d="m 37.955164,96.981358 c 1.175753,-2.17927 2.038612,-4.772067 3.644455,-6.616324 0.09679,-0.111154 0.349769,0.521835 0.407334,0.598588 0.606621,0.808828 1.25053,1.613874 1.567657,2.56526 0.139075,0.417221 0.427545,0.827971 0.427545,1.282628 0,0.04501 -0.03372,0.32716 0,0.36063 0.0208,0.02064 0.112636,0.01577 0.08792,0 C 43.299074,94.667915 42.491359,94.190403 41.692,93.699533"
       id="path6891" />
    <path
       style="fill:none;stroke:#000000;stroke-width:0.264583px;stroke-linecap:butt;stroke-linejoin:miter;stroke-opacity:1"
       d="m 37.302156,106.83665 c 1.754405,-1.23796 3.761772,-1.77702 5.764118,-2.43677 0.910658,-0.30005 0.552976,-0.28502 0.9976,-0.28502"
       id="path6893" />
    <path
       style="fill:none;stroke:#000000;stroke-width:0.264583px;stroke-linecap:butt;stroke-linejoin:miter;stroke-opacity:1"
       d="m 46.570405,106.6806 c -0.08102,1.81902 -1.127427,3.58355 -1.127427,5.38792"
       id="path6895" />
    <path
       style="fill:none;stroke:#000000;stroke-width:0.264583px;stroke-linecap:butt;stroke-linejoin:miter;stroke-opacity:1"
       d="m 50.689115,108.00925 c -1.465929,0.88508 -0.853927,0.38702 -1.89094,1.42403 -0.735925,0.73593 -0.741339,0.57139 -0.997601,1.85269 -0.246329,1.23165 0.537721,3.42035 1.995202,3.42035 0.142515,0 0.300075,0.0637 0.427543,0 0.671891,-0.33595 -0.400997,-1.49856 -0.710774,-1.56051 -0.450504,-0.0901 -0.95459,-0.14252 -1.423339,-0.14252 -0.201967,0 -0.0949,0.0801 -0.237824,0.22307 -0.802801,-0.38595 -1.605603,-0.77189 -2.408404,-1.15784"
       id="path6897" />
    <path
       style="fill:none;stroke:#000000;stroke-width:0.264583px;stroke-linecap:butt;stroke-linejoin:miter;stroke-opacity:1"
       d="m 40.516648,116.37243 c 0.48111,-0.23294 1.261761,-0.73136 1.858129,-0.50773 0.222401,0.0834 0.363829,0.3097 0.570058,0.42754 0.0447,0.0255 0.635148,0.1818 0.712571,0.28504 0.153492,0.20465 0.131537,0.50791 0.28503,0.71257 0.655799,0.87439 0.726305,2.1841 0.570058,3.27783 -0.07448,0.52135 -0.555485,0.90813 -0.855088,1.28263 -0.165111,0.20639 -0.446146,0.61528 -0.811991,0.42755 -0.228055,-0.11703 -0.0968,-0.23757 -0.285027,-0.4258 -0.07511,-0.0751 -0.209918,-0.0674 -0.285028,-0.14251 -0.150225,-0.15023 -0.190021,-0.38004 -0.28503,-0.57006 -0.539978,-1.07996 -0.349563,-1.66715 0.570058,-2.28023 0.722272,-0.48152 1.422688,-0.60661 2.280229,-0.28503 1.321845,0.49569 3.036181,3.86654 3.140602,3.89836"
       id="path6899" />
    <path
       style="fill:none;stroke:#000000;stroke-width:0.264583px;stroke-linecap:butt;stroke-linejoin:miter;stroke-opacity:1"
       d="m 53.579828,115.14438 c 1.613072,-0.17276 3.184012,0.58891 4.775605,0.58891"
       id="path6901" />
    <path
       style="fill:none;stroke:#000000;stroke-width:0.264583px;stroke-linecap:butt;stroke-linejoin:miter;stroke-opacity:1"
       d="m 54.507092,118.27587 c -0.07838,3.26203 4.422643,-0.94217 5.8,0.43519"
       id="path6903" />
    <path
       style="fill:none;stroke:#000000;stroke-width:0.264583px;stroke-linecap:butt;stroke-linejoin:miter;stroke-opacity:1"
       d="m 67.488942,111.95128 c -1.422286,0.65965 -0.715214,0.22757 -2.289685,1.65503 -0.603885,0.54749 -1.256131,1.0483 -1.798932,1.65641 -0.255039,0.28573 -0.389823,0.65966 -0.570058,0.9976 -0.870235,1.63169 -1.147312,3.72957 0.712574,4.8455 0.436522,0.26191 2.073063,0.53326 2.341943,0.58768 0.593148,0.12006 0.81584,0.21022 1.425146,0.14252 0.237678,-0.0264 1.965624,-0.54108 1.563021,-1.10352 -0.325419,-0.45461 -0.180374,-0.13298 -0.560856,-0.41834 -0.107489,-0.0806 -0.160274,-0.23513 -0.285027,-0.28503 -0.132321,-0.0529 -0.286967,0.0234 -0.427543,0 -0.713505,-0.11892 -1.397371,-0.28503 -2.137717,-0.28503 -0.51965,0 -1.039299,0 -1.558952,0"
       id="path6905" />
    <path
       style="fill:none;stroke:#000000;stroke-width:0.264583px;stroke-linecap:butt;stroke-linejoin:miter;stroke-opacity:1"
       d="m 72.028404,112.1582 c 0,0.39956 -0.107815,0.81395 0,1.1987 0.939969,3.35429 2.399482,3.15926 4.423158,0.84986 0.60914,-0.69514 0.0832,-2.62557 0.285028,-0.47578 0.02774,0.29547 0.107431,0.58387 0.150013,0.87756 0.05495,0.37903 0.09182,0.76049 0.142513,1.14012 0.161298,1.20781 0.300643,2.34144 0.300643,3.55984 0,0.57006 -0.05672,1.14295 0,1.71018 0.02014,0.20132 0.142515,0.79234 0.142515,0.59002"
       id="path6907" />
    <path
       style="fill:none;stroke:#000000;stroke-width:0.264583px;stroke-linecap:butt;stroke-linejoin:miter;stroke-opacity:1"
       d="m 81.960581,113.94697 c -0.07279,2.61059 -0.131148,5.84583 -0.301773,8.5301 -0.04419,0.6952 -0.150082,2.46001 -0.150082,1.73098"
       id="path6909" />
    <path
       style="fill:none;stroke:#000000;stroke-width:0.264583px;stroke-linecap:butt;stroke-linejoin:miter;stroke-opacity:1"
       d="m 86.428822,114.33824 c -0.722579,0.48418 -1.519245,0.87288 -2.167734,1.45254 -1.128969,1.00916 -2.084601,2.19692 -3.135108,3.28751 -0.280803,0.29152 -0.572418,0.57242 -0.858626,0.85863 -0.04751,0.0475 -0.139089,0.0754 -0.142515,0.14251 -0.01251,0.2448 2.791177,1.91959 3.137961,2.12699 1.540301,0.92124 2.098312,1.85499 2.992802,3.42035 0.111112,0.19444 0.570058,1.38972 0.570058,1.15638"
       id="path6911" />
    <path
       style="fill:none;stroke:#000000;stroke-width:0.264583px;stroke-linecap:butt;stroke-linejoin:miter;stroke-opacity:1"
       d="m 41.264458,97.392415 c -0.413138,0.956355 -0.735322,1.957366 -1.239414,2.869065 -0.232738,0.42093 -0.514051,-0.0207 -0.699304,0.54267 -0.06087,0.18513 0.09145,0.5764 0.142515,0.67831 0.960493,1.91688 2.314599,-1.08395 1.303354,-1.08395"
       id="path6946" />
    <path
       style="fill:none;stroke:#000000;stroke-width:0.264583px;stroke-linecap:butt;stroke-linejoin:miter;stroke-opacity:1"
       d="m 40.771609,100.39851 c 0.393879,0.3719 0.697425,0.87282 1.181637,1.1157 2.009587,1.008 4.913153,1.02273 6.961698,1.30437 4.237273,0.58255 8.352821,1.27113 12.633364,1.27113 1.035352,0 5.655109,0.28443 6.618047,-0.14251 0.03556,-0.0158 0,-0.76737 0,-1.02255 0,-0.8759 -0.03614,-0.29753 0.310732,-1.69003 0.44382,-1.781673 0.879972,-3.579456 1.139854,-5.398627 0.06585,-0.460944 -0.07658,-0.951326 0,-1.410796 0.07713,-0.46278 0.28503,-0.927518 0.28503,-1.421572"
       id="path6948" />
    <path
       style="fill:none;stroke:#000000;stroke-width:0.264583px;stroke-linecap:butt;stroke-linejoin:miter;stroke-opacity:1"
       d="m 67.16107,93.965097 c 0.549913,-0.600032 1.115635,-1.185952 1.649744,-1.800092 0.47744,-0.548982 0.951336,-1.102855 1.383752,-1.687957 0.140959,-0.19073 0.230746,-0.705051 0.425744,-0.570058 0.05718,0.03958 0.254304,0.831157 0.278299,0.879149 0.305004,0.610008 0.756327,1.483482 1.140116,1.995202 0.170836,0.227783 0.28503,0.575908 0.28503,0.855086 0,0.05976 0.173993,0.153868 0.117036,0.135792 -0.84278,-0.26747 -1.692547,-0.512397 -2.53882,-0.768596"
       id="path6950" />
    <path
       style="fill:none;stroke:#000000;stroke-width:0.264583px;stroke-linecap:butt;stroke-linejoin:miter;stroke-opacity:1"
       d="m 68.402739,103.61229 c -0.07772,-0.50879 -2.088356,0.0744 -1.823101,0.53477 1.13347,1.96735 3.029238,-0.28246 2.558531,-0.87127 -0.443666,-0.55499 -1.408697,-0.12974 -0.73543,0.3365 0.767887,0.53177 4.664228,1.03462 5.5353,1.11051 0.678101,0.0591 1.36134,0 2.042009,0 2.475701,0 4.951399,0 7.4271,0 3.022918,0 5.948447,0.27602 8.961602,0.39655 2.76394,0.11057 5.556935,0 8.32332,0 0.9636,0 5.21652,-0.26761 6.45765,0.3213 0.058,0.0275 -0.16412,0.0575 -0.19261,0 -0.0195,-0.0395 0.0249,-0.0958 0,-0.13213 -0.74152,-1.08529 0.3214,1.07617 -0.71257,-0.9976 -0.26211,-0.52571 -0.50811,-1.42476 -0.57329,-2.01138 -0.27133,-2.441981 -0.28805,-5.337092 -0.28805,-7.595464"
       id="path6952" />
    <path
       style="fill:none;stroke:#000000;stroke-width:0.264583px;stroke-linecap:butt;stroke-linejoin:miter;stroke-opacity:1"
       d="m 102.56578,95.840827 c 0.25411,-0.301612 0.52776,-0.587788 0.76232,-0.904833 0.67216,-0.908516 1.30976,-1.84213 1.95595,-2.769293 0.25625,-0.367673 0.41149,-0.808159 0.71257,-1.140116 0.1555,-0.171442 0.0553,0.465193 0.14252,0.679582 0.83537,2.053294 0.063,-0.54006 0.97163,2.297634 0.17099,0.533984 0.0305,1.452295 0.57635,1.580255 0.0354,0.0083 0.034,-0.09613 0,-0.109106 -0.75651,-0.288951 -1.53595,-0.513916 -2.30392,-0.770874"
       id="path6954" />
    <path
       style="fill:none;stroke:#000000;stroke-width:0.264583px;stroke-linecap:butt;stroke-linejoin:miter;stroke-opacity:1"
       d="m 107.45051,104.66662 c -0.65293,-0.0872 -3.17131,1.76817 -2.34383,2.13594 0.35797,0.1591 0.75371,0.22063 1.14011,0.28503 0.18744,0.0312 0.38572,0.0461 0.57006,0 0.0234,-0.006 0.0112,-0.82921 0,-0.85154 -0.0787,-0.15748 -0.94773,-0.86431 -0.98334,-0.83003 -0.35645,0.34311 4.00655,0.44366 4.10072,0.44836 0.1496,0.007 3.55836,0.32212 3.85693,0.36693 0.60237,0.0904 1.18728,0.28417 1.79186,0.35837 0.37317,0.0458 0.75303,-0.0285 1.12793,0 1.02962,0.0782 2.10355,0.21869 3.1274,0.33245 0.13378,0.0149 2.58703,0.48396 2.67233,0.42754 0.13035,-0.0862 -0.0203,-0.31391 0,-0.46888 0.0317,-0.24206 0.12898,-0.47428 0.14516,-0.71788 0.10084,-1.51789 0,-3.04248 0,-4.56373 0,-2.262418 0,-4.524838 0,-6.787258 0,-0.960028 0,-1.920052 0,-2.880077 0,-0.338797 0,-1.355185 0,-1.016389"
       id="path6956" />
    <path
       style="fill:none;stroke:#000000;stroke-width:0.264583px;stroke-linecap:butt;stroke-linejoin:miter;stroke-opacity:1"
       d="m 119.24713,92.257289 c 0.65082,-0.468424 1.32073,-0.9114 1.95246,-1.405276 2.57687,-2.014585 0.78487,-0.452639 1.41095,-1.397826 0.0479,-0.07229 0.15547,-0.19381 0.22105,-0.137096 0.16364,0.141499 1.18181,4.228851 1.70846,4.228851"
       id="path6958" />
    <path
       style="fill:none;stroke:#000000;stroke-width:0.264583px;stroke-linecap:butt;stroke-linejoin:miter;stroke-opacity:1"
       d="m 32.878619,28.902088 c 3.419335,-0.543764 6.854553,-0.896318 10.235909,-1.379371 2.477852,-0.353978 5.247574,0.04021 7.695777,0.285031 1.670127,0.167013 3.453225,0 5.130517,0 3.78465,0 7.530605,-0.02082 11.286021,0.285027 3.412485,0.277924 6.864879,-0.151019 10.253798,-0.319579 3.57411,-0.177771 7.202214,0.25577 10.771954,0 6.617205,-0.474115 13.290665,-0.300051 19.940345,-0.300051 4.40443,0 0.54287,0.06858 6.02861,-0.300098 3.81623,-0.256472 7.76616,0 11.60039,0 0.86216,0 4.92347,-0.376124 5.63407,0 1.43105,0.757462 5.76653,0.249719 7.40663,0.249719 0.84948,0 2.02236,-0.206981 2.85028,0 0.6426,0.160649 1.39626,0.570058 1.99521,0.570058"
       id="path6960" />
    <path
       style="fill:none;stroke:#000000;stroke-width:0.264583px;stroke-linecap:butt;stroke-linejoin:miter;stroke-opacity:1"
       d="m 144.24756,20.940252 c -0.92488,1.230122 4.29864,3.033853 3.85337,3.996435 -0.15045,0.325248 -1.86212,1.298715 -1.92298,1.35293 -1.12605,1.003037 -2.22944,2.031274 -3.35177,3.038469 -0.543,0.487294 -1.28808,1.56741 -1.7414,2.026428 -0.0659,0.06676 -0.33923,0.07397 -0.2815,0 0.9111,-1.16753 1.93657,-2.241127 2.90485,-3.36169"
       id="path6962" />
    <path
       style="fill:none;stroke:#000000;stroke-width:0.264583px;stroke-linecap:butt;stroke-linejoin:miter;stroke-opacity:1"
       d="m 38.006115,21.45755 c -1.705396,0.893039 -3.667363,1.689434 -5.238221,2.811475 -0.172876,0.123483 -0.109458,0.450438 -0.285028,0.570058 -0.151968,0.103539 -0.377748,-0.05973 -0.551667,0 -0.04296,0.01476 -0.134969,0.419876 -0.161446,0.44347 -0.186454,0.166165 -0.96248,0.395959 -1.136578,0.570057 -0.170299,0.1703 -0.23205,0.625035 -0.566526,0.84802 -0.178742,0.119161 -1.651738,1.051179 -1.675667,1.105625 -0.07645,0.173961 0.06009,0.38979 0,0.570058 -0.123489,0.37047 -0.884619,0.571958 -0.570058,1.126647 0.561739,0.990547 4.182724,2.098913 4.685387,2.329793 1.53802,0.70643 3.077329,1.442625 4.658797,2.035675 0.541123,0.20292 1.193265,0.02658 1.710174,0.285028 0.7523,0.37615 -0.816523,0.285028 0.273362,0.285028"
       id="path6964" />
    <path
       style="fill:none;stroke:#000000;stroke-width:0.264583px;stroke-linecap:butt;stroke-linejoin:miter;stroke-opacity:1"
       d="m 67.874768,19.492384 c 1.065422,-1.143978 7.736848,-5.130585 8.461462,-4.163928 0.582174,0.776639 2.498649,5.087918 1.710172,6.270634 -0.945838,1.418756 -8.776303,2.122049 -5.588479,1.484484 1.038997,-0.2078 6.956758,-0.681592 7.769548,-0.285029 0.484486,0.236383 0.639087,0.945602 0.838012,1.348564 0.168224,0.340777 0,0.760076 0,1.140115 0,3.362311 -4.336823,5.156726 -7.181355,4.845489 -0.298665,-0.03268 -0.570058,-0.190019 -0.855086,-0.285028 -1.122765,-0.10006 -2.243918,-0.220265 -3.368294,-0.300183 -0.284313,-0.02021 -0.570058,0 -0.855088,0 -0.08538,0 0.170756,0 0.256132,0"
       id="path6966" />
    <path
       style="fill:none;stroke:#000000;stroke-width:0.264583px;stroke-linecap:butt;stroke-linejoin:miter;stroke-opacity:1"
       d="m 88.984189,14.622687 c 4.264242,-0.444447 4.832549,-1.541188 4.832549,1.278563 0,4.202824 0.4167,5.033058 -0.58461,8.388451 -0.437701,1.466733 -3.77358,2.101579 -4.84549,2.280231 -2.0892,0.348199 -6.463048,-3.312159 -3.715448,-3.702017 1.765371,-0.25049 7.817162,-1.084564 9.113425,0.535764 0.187687,0.23461 0.118369,0.6051 0.285027,0.855087 0.223594,0.335392 0.620795,0.527077 0.855086,0.855086 0.703932,0.985502 0.895062,2.53205 1.710174,3.420346 0.116935,0.127434 0,-0.345916 0,-0.518871"
       id="path6968" />
    <path
       style="fill:none;stroke:#000000;stroke-width:0.264583px;stroke-linecap:butt;stroke-linejoin:miter;stroke-opacity:1"
       d="m 105.98367,11.560693 c 0,2.085078 0,4.170155 0,6.255233 0,2.323245 0,4.64649 0,6.969736 0,9.360502 -0.76246,-2.929323 -0.57006,-3.795116 0.20271,-0.912208 1.32294,-2.685378 2.56526,-1.995201 0.71445,0.396917 1.38012,0.886946 1.9952,1.425143 0.49079,0.42944 3.336,4.934931 2.57053,5.700398 -0.98842,0.988423 -2.78451,2.251083 -3.99833,2.85799 -1.25221,0.62611 -4.93038,0.485155 -5.98204,-0.566495"
       id="path6970" />
    <path
       style="fill:none;stroke:#000000;stroke-width:0.264583px;stroke-linecap:butt;stroke-linejoin:miter;stroke-opacity:1"
       d="m 155.14138,43.831769 c -0.0496,2.013119 0.46526,3.9786 0.57005,5.977342 0.2902,5.534996 0,11.19106 0,16.736221 0,4.428919 0.4006,9.039839 0,13.446421 -0.0962,1.057876 -0.4383,2.081279 -0.57005,3.135315 -0.13842,1.107332 0,2.299224 0,3.420346"
       id="path6972" />
    <path
       style="fill:none;stroke:#000000;stroke-width:0.264583px;stroke-linecap:butt;stroke-linejoin:miter;stroke-opacity:1"
       d="m 150.66353,82.809518 c 0.88643,0.983991 0.82126,2.373686 1.40674,3.479139 0.43039,0.812622 3.48841,6.37817 4.85323,7.136053 0.42057,0.23354 0.98312,-1.601552 1.91768,-3.283765 0.65455,-1.178192 1.85796,-2.181365 1.67136,-2.241426 -1.75744,-0.565689 -3.58077,-0.901403 -5.37116,-1.352105"
       id="path6974" />
    <path
       style="fill:none;stroke:#000000;stroke-width:0.264583px;stroke-linecap:butt;stroke-linejoin:miter;stroke-opacity:1"
       d="m 149.47644,51.475052 c 1.68742,-4.239951 0.0888,-0.489895 3.57048,-7.003203 0.90066,-1.684888 2.03713,-5.076823 3.84657,-6.493407 0.13672,-0.107035 1.42925,2.419011 1.6552,2.757564 1.27124,1.904802 2.38652,3.824354 4.01518,5.45301"
       id="path6976" />
    <path
       style="fill:none;stroke:#000000;stroke-width:0.264583px;stroke-linecap:butt;stroke-linejoin:miter;stroke-opacity:1"
       d="m 166.60368,56.73609 c -1.31748,0.538181 -2.77894,0.809374 -3.95243,1.614543 -1.35898,0.93244 -2.62387,2.097834 -3.49618,3.496178 -2.61817,4.197038 4.75719,6.646339 5.69703,5.700575 0.4309,-0.433623 0.56296,-1.196832 0.56296,-1.692357 0,-0.163417 0.15289,-1.598702 0,-1.706634 -1.0646,-0.75152 -2.97399,-0.558358 -4.2063,-0.558358"
       id="path6978" />
    <path
       style="fill:none;stroke:#000000;stroke-width:0.264583px;stroke-linecap:butt;stroke-linejoin:miter;stroke-opacity:1"
       d="m 172.45771,57.172026 c -0.60586,1.347716 -1.77344,3.80162 -0.14288,5.106069 0.75659,0.605274 1.88423,0.644369 2.85029,0.570056 1.87829,-0.144484 1.42902,-0.516152 2.56526,-1.425144 2.01685,-1.613482 0.85508,-2.143641 0.85508,-3.851003 0,-0.234783 0,0.46957 0,0.704353 0,0.950095 0,1.900192 0,2.850287 0,0.69559 0,1.39118 0,2.086772 0,1.455369 0.28503,2.824813 0.28503,4.275431"
       id="path6980" />
    <path
       style="fill:none;stroke:#000000;stroke-width:0.264583px;stroke-linecap:butt;stroke-linejoin:miter;stroke-opacity:1"
       d="m 187.1361,56.701747 c -1.51751,3.202096 -1.29906,7.130722 -2.76226,10.308445 -0.031,0.0674 0.0739,-0.229031 0,-0.222602 -1.84233,0.160237 -3.6689,0.467505 -5.50335,0.701257"
       id="path6982" />
    <path
       style="fill:none;stroke:#000000;stroke-width:0.264583px;stroke-linecap:butt;stroke-linejoin:miter;stroke-opacity:1"
       d="m 187.1361,56.701747 c 0.72996,0.816515 2.41775,1.378276 2.18989,2.449547 -0.14858,0.698506 -4.56461,2.641137 -5.41202,3.135315 -0.2384,0.139031 0.69268,0.907593 1.94693,1.84947 1.18257,0.888047 2.30242,1.630547 3.43391,2.573454 0.61461,0.512169 1.74788,2.280229 2.27672,2.280229"
       id="path6984" />
    <rect
       style="opacity:0.487628;fill:#ffff00;stroke:#fc0012;stroke-width:0.264583"
       id="rect7008"
       width="31.875122"
       height="52.008724"
       x="35.941132"
       y="167.23343" />
    <rect
       style="opacity:0.487628;fill:#ffff00;stroke:#fc0012;stroke-width:0.264583"
       id="rect7010"
       width="34.685032"
       height="54.748928"
       x="119.51926"
       y="166.30196" />
    <rect
       style="opacity:0.487628;fill:#ffff00;stroke:#fc0012;stroke-width:0.264583"
       id="rect7012"
       width="20.810484"
       height="7.6733875"
       x="38.859066"
       y="231.81543" />
    <text
       xml:space="preserve"
       style="font-size:7.05556px;line-height:1.25;font-family:sans-serif;stroke-width:0.264583"
       x="44.002373"
       y="235.76422"
       id="text10074"><tspan
         sodipodi:role="line"
         id="tspan10072"
         style="stroke-width:0.264583"
         x="44.002373"
         y="235.76422">PC</tspan></text>
    <path
       style="fill:none;stroke:#000000;stroke-width:0.264583px;stroke-linecap:butt;stroke-linejoin:miter;stroke-opacity:1"
       d="m 59.669547,231.81543 c -1.098807,-1.25841 -2.22881,-2.49024 -3.296423,-3.77522 -0.144422,-0.17383 0.368184,-5.02289 0.368184,-5.69368"
       id="path12111" />
    <path
       style="fill:none;stroke:#000000;stroke-width:0.264583px;stroke-linecap:butt;stroke-linejoin:miter;stroke-opacity:1"
       d="m 56.741308,222.34653 c -1.111612,0.48979 -2.169705,1.1258 -3.33484,1.46937 -0.476298,0.14045 0.241911,-0.79541 0.852339,-1.13736 0.321564,-0.18013 2.671638,-2.07004 2.871528,-1.94544 0.439577,0.27401 0.537364,0.72654 0.824887,1.10991 0.516154,0.6882 0.723958,0.57916 1.425143,1.14011 0.314762,0.25181 1.232387,0.99696 0.855086,0.85509 -1.185384,-0.44572 -2.329429,-0.99446 -3.494143,-1.49168"
       id="path12113" />
    <path
       style="fill:none;stroke:#000000;stroke-width:0.264583px;stroke-linecap:butt;stroke-linejoin:miter;stroke-opacity:1"
       d="m 78.362981,203.27324 c -2.484808,-1.07034 -6.60827,-2.51581 -9.045384,-2.51581"
       id="path12115" />
    <path
       style="fill:none;stroke:#000000;stroke-width:0.264583px;stroke-linecap:butt;stroke-linejoin:miter;stroke-opacity:1"
       d="m 69.317597,200.75743 c 0.02384,0.85889 0.254142,1.73709 0.07148,2.57667 -0.0721,0.33141 -1.380659,-1.36583 -1.425144,-1.42514 -0.477662,-0.63689 -2.211686,-2.2583 -1.211199,-3.19671 0.182333,-0.17103 4.53181,0.0516 4.944843,0 1.922074,-0.24026 3.561662,-1.88803 -2.379982,2.04518"
       id="path12117" />
    <path
       style="fill:none;stroke:#000000;stroke-width:0.264583px;stroke-linecap:butt;stroke-linejoin:miter;stroke-opacity:1"
       d="m 76.187061,191.97601 c 0,1.45094 0,2.90188 0,4.35282 0,0.0861 0.03126,-0.17813 0,-0.25838 -0.187338,-0.48096 -0.577887,-0.856 -0.843449,-1.2986 -1.220502,-2.03417 -3.779756,-6.68681 -0.570056,-8.29166 0.623393,-0.3117 3.08946,1.64818 3.40754,2.28023 0.543271,1.07951 -2.441173,1.88968 -1.994035,3.21559 0.229952,0.68189 2.571409,3.78904 3.805179,3.78904"
       id="path12119" />
    <path
       style="fill:none;stroke:#000000;stroke-width:0.264583px;stroke-linecap:butt;stroke-linejoin:miter;stroke-opacity:1"
       d="m 84.952114,187.23884 c -1.450234,1.8535 -2.618788,3.90341 -3.491846,6.08606 -0.10576,0.26439 -0.414788,1.86546 -0.570058,1.99169 -0.259618,0.21104 -0.598647,0.29897 -0.89797,0.44846"
       id="path12121" />
    <path
       style="fill:none;stroke:#000000;stroke-width:0.264583px;stroke-linecap:butt;stroke-linejoin:miter;stroke-opacity:1"
       d="m 84.952114,187.23884 c 0.836673,2.1194 1.846202,4.17847 2.510023,6.3582 0.09206,0.30229 -0.263716,0.58542 -0.299781,0.89936 -0.06506,0.56633 0,1.14011 0,1.71017 0,0.4796 0.04325,1.86658 0.222054,1.42156 0.06868,-0.17093 -0.08306,-0.38822 0,-0.55265 0.214188,-0.42402 0.642639,-0.71522 0.855086,-1.14012 0.497326,-0.99465 0.820568,-2.07016 1.140113,-3.13531 0.172667,-0.57556 0.114303,-2.10179 0.570058,-1.71018 0.133982,0.11513 0,0.3533 0,0.52994 0,0.46168 -0.05322,0.92643 0,1.38503 0.150164,1.29396 1.448274,9.84671 4.049414,5.51147 0.922924,-1.5382 0.459258,-0.17595 0.855085,-2.56526 0.215464,-1.30058 0.285031,-2.42793 0.285031,-3.71884"
       id="path12123" />
    <path
       style="fill:none;stroke:#000000;stroke-width:0.264583px;stroke-linecap:butt;stroke-linejoin:miter;stroke-opacity:1"
       d="m 35.887072,194.92152 c -4.153836,-0.80273 -8.156998,-2.26049 -12.373006,-2.86278 -1.110786,-0.15868 -2.322692,0.21953 -3.420345,0 -0.545784,-0.10915 -0.809352,-0.28503 -1.402216,-0.28503"
       id="path12125" />
    <path
       style="fill:none;stroke:#000000;stroke-width:0.264583px;stroke-linecap:butt;stroke-linejoin:miter;stroke-opacity:1"
       d="m 3.5993408,180.58705 c 0.1284904,0.54675 0.5091274,6.42773 0.7583342,6.56144 0.3899006,0.20921 0.66329,-0.23149 0.9156359,-0.28145 0.7456037,-0.14762 1.5201534,0 2.2802304,0 3.6103647,0 7.2207287,0 10.8310937,0 2.235818,0 11.392229,0.66337 13.200318,-0.56303 0.315303,-0.21387 -0.326758,-5.79247 -0.570058,-6.26421 -0.08635,-0.16743 0.112532,-0.57385 0,-0.72345 -0.164783,-0.21906 -2.295123,0 -2.508642,0 -3.325335,0 -6.650671,0 -9.976007,0 -1.170426,0 -2.818943,-0.29396 -3.965456,0 -1.058443,0.27139 -2.090635,0.31129 -3.121208,0.56655 -1.154494,0.28594 -2.3564419,-0.24895 -3.3987211,0.28141 -0.9338283,0.47519 -3.0926973,-0.15325 -4.4455201,0.42274 z"
       id="path12127" />
    <path
       style="fill:none;stroke:#000000;stroke-width:0.264583px;stroke-linecap:butt;stroke-linejoin:miter;stroke-opacity:1"
       d="m 18.691505,191.77371 c -0.801332,-3.07824 -1.431481,-1.49433 -3.515557,-0.97331 -0.475706,0.11893 -4.496451,0.68796 -4.268352,1.05409 0.405395,0.65071 4.698538,2.89029 5.799364,3.04755 0.376218,0.0537 0.765247,-0.0625 1.140115,0 0.296359,0.0494 0.831013,0.58451 0.855086,0.28503 0.09116,-1.13414 -0.0071,-2.27558 -0.01066,-3.41336"
       id="path12129" />
    <path
       style="fill:none;stroke:#000000;stroke-width:0.264583px;stroke-linecap:butt;stroke-linejoin:miter;stroke-opacity:1"
       d="m 9.6797057,151.68966 c -0.3081758,1.54532 0.1370775,2.94907 0.2850288,4.42858 0.1033625,1.03362 -0.1249527,4.19602 0.5854535,4.95264 0.302915,0.32261 0.593251,-1.41351 0.837681,-2.54785 0.671824,-3.11779 1.406256,-6.49182 3.324472,-9.18495 0.07461,-0.10474 0.134239,0.67361 0.262839,1.90644 0.06217,0.59602 0.353873,6.73917 1.460616,6.77786 0.657702,0.023 1.573607,-7.01207 1.690915,-7.65726 0.09106,-0.50084 0.05931,-1.37551 0.566578,-1.41818 0.07881,-0.007 -0.125623,1.57483 0,3.07852 0.06307,0.75492 0.525842,8.75287 0.623874,8.85948 0.347305,0.37767 0.262109,-0.44504 0.262109,-0.46918"
       id="path12131" />
    <path
       style="fill:none;stroke:#000000;stroke-width:0.264583px;stroke-linecap:butt;stroke-linejoin:miter;stroke-opacity:1"
       d="m 32.855622,149.78806 c -2.360279,-0.42018 -4.238924,0.91752 -6.01137,2.30579 -0.586639,0.45949 -2.9298,2.33128 -3.2356,2.94288 -0.264917,0.52984 -0.136832,1.10934 -0.285028,1.69728 -0.525769,2.08589 -0.140383,3.27997 1.425144,4.84549 0.625771,0.62578 0.922093,1.16245 1.710171,1.42515 1.532903,0.51096 3.384772,0.60563 4.560461,-0.57006 0.10223,-0.10223 0,-0.87487 0,-1.04529"
       id="path12133" />
    <path
       style="fill:none;stroke:#000000;stroke-width:0.264583px;stroke-linecap:butt;stroke-linejoin:miter;stroke-opacity:1"
       d="m 19.579272,160.41576 c -2.389151,4.79348 -0.812647,5.91525 -0.812647,9.59896 0,0.78668 -0.153916,1.79568 0,2.56526 0.04166,0.20832 0.217591,0.3686 0.285029,0.57006 0.269524,0.80517 -0.385363,2.09345 0,2.83946 0.350854,0.6792 0.281497,-0.12424 0.281497,0.54857"
       id="path12135" />
    <path
       style="fill:none;stroke:#000000;stroke-width:0.264583px;stroke-linecap:butt;stroke-linejoin:miter;stroke-opacity:1"
       d="m 19.333151,176.53807 c -1.092057,-0.66763 -2.16623,-1.36544 -3.27617,-2.0029 -0.671879,-0.38587 0.495241,0.5992 0.855086,1.14012 0.636792,0.95721 0.534066,2.23479 1.706607,2.23479 1.156996,0 -0.07827,-0.84296 0.714477,-1.37201 0.24593,-1.78173 1.384329,0.25617 1.972533,-0.0379 0.36424,-0.18212 0.400569,-0.66424 0.570058,-0.83373 0.503893,-0.50389 2.674994,-1.21362 -2.542591,0.87166"
       id="path12137" />
    <path
       style="fill:none;stroke:#000000;stroke-width:0.264583px;stroke-linecap:butt;stroke-linejoin:miter;stroke-opacity:1"
       d="m 13.473264,179.84462 c -0.986327,0.61383 0.390302,5.79741 -0.209309,6.58056 -0.04758,0.0621 -0.66991,0 -0.75081,0"
       id="path12139" />
    <path
       style="fill:none;stroke:#000000;stroke-width:0.264583px;stroke-linecap:butt;stroke-linejoin:miter;stroke-opacity:1"
       d="m 5.5392023,183.68983 c -0.5008507,0.68443 0.2754852,2.09323 1.0745052,1.19577 0.2434984,-0.27349 0.1071549,-0.74272 -0.071257,-0.9976 -0.07625,-0.10893 -0.1714849,-0.30656 -0.3206575,-0.35628 -0.0338,-0.0113 -0.072628,0.01 -0.1068859,0 -0.051068,-0.0146 -0.090988,-0.0584 -0.1425143,-0.0713 -0.1894853,-0.0474 -0.4008398,0.0392 -0.5700575,0.10689"
       id="path12141" />
    <path
       style="fill:none;stroke:#000000;stroke-width:0.264583px;stroke-linecap:butt;stroke-linejoin:miter;stroke-opacity:1"
       d="m 8.254689,183.19107 c 0.032789,0.49206 -0.061698,1.0075 0.035628,1.49413 0.022095,0.11048 0.071257,0.20224 0.071257,0.32066 0,0.0393 0.00779,-0.0795 0,-0.11803 C 8.328722,184.7251 8.33086,184.75514 8.2546881,184.6028"
       id="path12143" />
    <path
       style="fill:none;stroke:#000000;stroke-width:0.264583px;stroke-linecap:butt;stroke-linejoin:miter;stroke-opacity:1"
       d="m 8.254689,183.19107 c -0.096975,-0.26234 0.1349719,-0.48139 0.3267342,-0.6348 0.3004122,-0.24033 0.5395907,-0.12561 0.675345,0.21377 0.064732,0.16183 0.1502778,0.23168 -0.034972,0.41608 -0.1505191,0.14982 -0.6457659,0.45781 -0.8574413,0.50015 -0.10107,0.0202 -0.1750642,0.0356 -0.285029,0.0356 -0.035337,0 -0.1208585,0.0321 -0.1060127,0 0.084134,-0.18173 0.1875837,-0.35388 0.2813756,-0.53082"
       id="path12145" />
    <path
       style="fill:none;stroke:#000000;stroke-width:0.264583px;stroke-linecap:butt;stroke-linejoin:miter;stroke-opacity:1"
       d="m 7.0839848,188.71781 c -0.5949283,2.79241 -0.8654174,5.67584 -1.1505793,8.52745 -0.09957,0.9957 0.2414664,2.16945 0,3.13532 -0.072748,0.29099 -0.1425143,0.37107 -0.1425143,0.66674"
       id="path12147" />
    <path
       style="fill:none;stroke:#000000;stroke-width:0.264583px;stroke-linecap:butt;stroke-linejoin:miter;stroke-opacity:1"
       d="m 2.2330372,200.20722 c 0.6505806,1.6691 1.7407811,3.12397 2.3658616,4.79087 0.1194496,0.31853 0.63237,1.66481 0.995861,1.85095 0.2671111,0.13678 1.8071023,-1.90555 1.9740993,-2.20325 0.4901367,-0.87377 1.009101,-1.73117 1.4978451,-2.60572 0.1250421,-0.22375 0.5713188,-1.00812 0.5713188,-1.28868"
       id="path12149" />
    <path
       style="fill:none;stroke:#000000;stroke-width:0.264583px;stroke-linecap:butt;stroke-linejoin:miter;stroke-opacity:1"
       d="m -4.2587134,210.62236 c 0,0.77258 0,1.54515 0,2.31773 0,1.32829 0,2.65658 0,3.98488 0,0.48905 0.096231,1.10821 0,1.58936 -0.3067548,1.53377 -0.3922512,2.98567 0,4.55468 0.055963,0.22385 -0.1360115,0.68618 0,0.84072 0.01905,0.0216 2.1596254,-0.0207 2.5573174,0 3.0342864,0.15819 6.0769452,0.008 9.1092914,0.15911 4.6896176,0.23433 -0.5499095,0.17876 3.9212506,0.17876 1.840047,0 3.617807,0.31948 5.446453,0.31948 0.450047,0 1.527168,0.0729 1.567658,0 0.03362,-0.0605 -0.267832,-2.38665 -0.288717,-2.58238 -0.159466,-1.49447 -0.299841,-2.98782 -0.479647,-4.48052 -0.253712,-2.10626 -0.536487,-4.29984 -0.323632,-6.42839 0.02875,-0.28752 0.333149,-0.63793 0.142515,-0.85508 -0.147149,-0.16762 -1.499104,0 -1.629513,0 -2.972783,0 -5.9139143,0.17843 -8.8859254,0.17843 -2.2364443,0 -4.4728882,0 -6.70933226,0 -0.94877382,0 -1.90135164,-0.0849 -2.84632144,0 -0.5302239,0.0476 -1.0501905,0.25822 -1.5813973,0.22322 -0.2639629,-0.0174 -0.4461042,-0.29996 -0.7002074,-0.37352 -0.3714911,-0.10753 -0.7734837,0 -1.1602257,0 -0.2421458,0 -0.9685829,0 -0.7264373,0"
       id="path12151" />
    <path
       style="fill:none;stroke:#000000;stroke-width:0.264583px;stroke-linecap:butt;stroke-linejoin:miter;stroke-opacity:1"
       d="m -1.7128692,215.0779 c 0,0.93583 0,1.87166 0,2.8075 0,0.77491 -0.1425144,1.51407 -0.1425144,2.27848 0,0.14603 0.036464,-0.29668 0,-0.43808 -0.026525,-0.10286 -0.09501,-0.19002 -0.1425144,-0.28503 -0.047505,-0.28503 -0.072431,-0.57475 -0.1425144,-0.85509 -0.4151497,-1.6606 -0.7473863,-3.33693 -0.1455327,-5.03522 0.1364975,-0.38516 1.49255029,-2.51836 2.14259131,-1.86832 0.4577757,0.45778 3.18612349,3.7489 2.69959259,4.72197 -0.1659271,0.33185 -0.4847629,0.56223 -0.7125719,0.85508 -0.6452147,0.82944 -1.27423706,1.74039 -2.42894232,1.57543 -0.19263373,-0.0275 -1.27591008,-0.26118 -1.27591008,-0.42082"
       id="path12153" />
    <path
       style="fill:none;stroke:#000000;stroke-width:0.264583px;stroke-linecap:butt;stroke-linejoin:miter;stroke-opacity:1"
       d="m 2.5557039,219.14264 c 1.2727187,0.7083 3.0652266,1.1148 4.3838702,0.19298 0.3442806,-0.24067 0.530274,-0.65197 0.809298,-0.96598 0.2596398,-0.29219 0.5715508,-0.41685 0.5726499,-0.85638 0.00119,-0.47946 -0.7396017,-0.54901 -0.9958351,-0.56359 -1.3829582,-0.0787 -2.1627755,-0.18756 -3.2234531,0.57006 -0.8869518,0.63354 -0.8559001,1.1041 -0.1386088,1.99814 0.6672535,0.83168 1.4898055,1.3093 2.5113683,1.70191 0.5085633,0.19546 1.5762208,0.31986 2.1955255,0.31986"
       id="path12155" />
    <path
       style="fill:none;stroke:#000000;stroke-width:0.264583px;stroke-linecap:butt;stroke-linejoin:miter;stroke-opacity:1"
       d="m 12.211093,216.69139 c -2.9765657,0.29604 -3.0246029,2.89755 -0.800425,4.56706 1.275964,0.95776 3.076349,0.71257 4.558607,0.71257"
       id="path12157" />
    <path
       style="fill:none;stroke:#000000;stroke-width:0.264583px;stroke-linecap:butt;stroke-linejoin:miter;stroke-opacity:1"
       d="m -2.9752967,224.66479 c -0.6514251,1.54399 -0.9445,3.16697 -1.4443109,4.76473 -0.1853047,0.59237 -0.4755007,1.15084 -0.6322293,1.75141 -0.1106048,0.42382 -0.08843,0.87238 -0.1650476,1.30364 -0.00518,0.0292 -0.248375,0.5863 -0.1425144,0.71258 0.051168,0.061 0.1592937,0 0.2389405,0 0.2375238,0 0.475048,0 0.7125718,0"
       id="path12159" />
    <path
       style="fill:none;stroke:#000000;stroke-width:0.264583px;stroke-linecap:butt;stroke-linejoin:miter;stroke-opacity:1"
       d="m 0.75052303,225.89387 c 0.11279208,1.94297 -0.0839408,3.87443 -0.16947938,5.80613 -0.0332064,0.7499 0,1.50126 0,2.25189 0,0.0483 -0.0463353,0.15885 0,0.14504 0.3734046,-0.11126 0.48894305,-0.40559 0.68384555,-0.69794"
       id="path12161" />
    <path
       style="fill:none;stroke:#000000;stroke-width:0.264583px;stroke-linecap:butt;stroke-linejoin:miter;stroke-opacity:1"
       d="m 6.3662112,225.98492 c 0,0.32506 -0.040713,0.65268 0,0.97518 0.054855,0.43453 0.2394389,0.84704 0.2850287,1.28263 0.1206032,1.15232 0,2.47297 0,3.63467 0,0.0139 -0.1867535,1.48245 0.1321459,1.22655"
       id="path12163" />
    <path
       style="fill:none;stroke:#000000;stroke-width:0.264583px;stroke-linecap:butt;stroke-linejoin:miter;stroke-opacity:1"
       d="m 9.4620894,226.45449 c 0,3.6568 -0.088622,-1.06904 0.3686725,3.50445 0.1075925,1.07606 -0.1460714,2.27822 0.3018771,3.32343 0.09953,0.23225 0.403101,0.85509 0.710789,0.85509"
       id="path12165" />
    <path
       style="fill:none;stroke:#000000;stroke-width:0.264583px;stroke-linecap:butt;stroke-linejoin:miter;stroke-opacity:1"
       d="m 13.411071,226.26356 c 0.535751,0.81745 0.654796,4.37633 1.205431,5.11052 0.06373,0.085 0.20005,0.0788 0.285029,0.14251 0.391306,0.29348 0.734488,0.52262 0.993999,0.004"
       id="path12167" />
    <path
       style="fill:none;stroke:#000000;stroke-width:0.264583px;stroke-linecap:butt;stroke-linejoin:miter;stroke-opacity:1"
       d="m 17.784194,226.653 c 0.304604,2.25601 1.046613,3.90325 2.00985,5.82973"
       id="path12169" />
    <path
       style="fill:none;stroke:#000000;stroke-width:0.264583px;stroke-linecap:butt;stroke-linejoin:miter;stroke-opacity:1"
       d="m 20.222544,181.99231 c 0.128829,0.45505 0.03228,0.95128 0.145348,1.40072 0.04217,0.16762 -0.02845,0.36514 0,0.53585 0.008,0.0483 0.02375,0.095 0.03563,0.14252 0,0.0831 -0.01031,0.16691 0,0.24939 0.04393,0.0439 0.03563,0.0188 0.03563,0.0708"
       id="path12171" />
    <path
       style="fill:none;stroke:#000000;stroke-width:0.264583px;stroke-linecap:butt;stroke-linejoin:miter;stroke-opacity:1"
       d="m 20.222544,181.99231 c 0.07466,0.13506 0.115279,0.29565 0.223991,0.40519 0.01097,0.0111 0.641784,0 0.732091,0 0.02969,0 -0.05647,0.0189 -0.08302,0.0322"
       id="path12173" />
    <path
       style="fill:none;stroke:#000000;stroke-width:0.264583px;stroke-linecap:butt;stroke-linejoin:miter;stroke-opacity:1"
       d="m 20.403522,184.0714 c 0.462804,-0.67613 0.178689,-0.63693 0.578486,-0.63693 0.05882,0 0.127647,-0.0328 0.176471,0 0.03132,0.021 -0.05112,0.058 -0.08488,0.0749"
       id="path12175" />
    <path
       style="fill:none;stroke:#000000;stroke-width:0.264583px;stroke-linecap:butt;stroke-linejoin:miter;stroke-opacity:1"
       d="m 20.403522,184.0714 c -0.128315,0.0258 -0.273378,0.009 -0.384945,0.0775 -0.01653,0.0101 0.189594,0.10365 0.400711,0.14471 0.175964,0.0342 0.355427,0.048 0.531771,0.0802 0.276838,0.0506 0.516858,0.13171 0.794492,0.13171"
       id="path12177" />
    <path
       style="fill:none;stroke:#000000;stroke-width:0.264583px;stroke-linecap:butt;stroke-linejoin:miter;stroke-opacity:1"
       d="m 22.447391,182.25596 c -0.05805,0.587 0.04996,1.16268 0.08459,1.74418 0.01421,0.23863 -0.0568,0.53987 0.03563,0.54887 0.0022,2.1e-4 -0.0014,-0.046 0,-0.0524 0.01046,-0.0473 0.03221,-0.0925 0.03564,-0.14086 0.0085,-0.11986 0.0044,-0.24041 0,-0.36049 -0.05768,-1.57705 -0.05192,-0.57243 -0.05192,-1.41192 0,-0.0479 0.0145,-0.0981 0,-0.14382 -0.0148,-0.0466 -0.316725,-0.40215 0.12916,-0.2238 0.118918,0.0476 0.434063,0.90144 0.509771,1.06601 0.168233,0.36569 0.384415,0.69231 0.646675,0.99193 0.0614,0.0702 0.1855,0.31649 0.320658,0.28503 0.05394,-0.0125 0.03293,-0.50365 0.03424,-0.52863 0.01738,-0.33332 0.02908,-0.66703 0.0544,-0.99985 0.0065,-0.0857 0.02946,-0.16954 0.03753,-0.25511 0.01975,-0.20925 -0.03453,-0.43411 0,-0.64131 0.04087,-0.24524 0.03563,0.0275 0.03563,-0.10644"
       id="path12179" />
    <path
       style="fill:none;stroke:#000000;stroke-width:0.264583px;stroke-linecap:butt;stroke-linejoin:miter;stroke-opacity:1"
       d="m 25.670355,182.53941 c 0.09453,0.57144 0.139744,1.14413 0.23243,1.71651 0.02768,0.17096 0.05284,0.34254 0.08973,0.51175 0.04394,0.20156 0.03869,0.002 0.03869,0.11257 0,0.008 0,-0.0161 0,-0.0241 0,-0.1158 0.0039,-0.0517 -0.03563,-0.23727 -0.02486,-0.11679 -0.05582,-0.23233 -0.07677,-0.34988 -0.06893,-0.38681 -0.08706,-0.86827 0.0024,-1.25193 0.04558,-0.19547 0.123078,-0.38218 0.178038,-0.57523 0.01641,-0.0576 0.07943,-0.40567 0.218469,-0.26663 0.407379,0.40738 0.514562,0.99798 0.647523,1.53548 0.234212,0.94681 0.203573,0.53634 0.203573,1.20089 0,0.14261 0.01093,0.28564 0,0.42783 -0.01061,0.13785 -0.40041,0.39775 -0.51041,0.43179 -0.08932,0.0276 -0.506038,0.11399 -0.506038,-0.10402"
       id="path12181" />
    <path
       style="fill:none;stroke:#000000;stroke-width:0.264583px;stroke-linecap:butt;stroke-linejoin:miter;stroke-opacity:1"
       d="m 25.873114,188.59961 c 0.16949,2.09621 0.681586,4.1659 0.763284,6.29906 0.0098,0.25614 -0.05151,0.51367 -0.02466,0.7686 0.03555,0.33774 0.164082,0.66043 0.210508,0.99686 0.139449,1.01049 0.134451,2.21711 0.145016,3.2312 -0.102648,3.19741 -0.05943,0.0964 0.03582,2.60952 0.03492,0.9211 -0.111956,1.85012 -0.08897,2.77153 0.0067,0.26894 0.07518,0.53344 0.08967,0.80208 0.02598,0.48145 -0.06193,0.96381 -0.04641,1.44571 0.04096,1.27239 0.06575,2.54698 0.08972,3.82454 0.01299,0.69189 -0.07928,1.38578 -0.0667,2.07768 0.01714,0.94292 0.106725,1.88445 0.128471,2.82271 0.02352,1.01487 -0.06634,2.06657 -0.09892,3.0815 -0.05295,1.64947 -0.105905,3.29894 -0.158859,4.94842 -0.02604,0.81091 0.02003,1.65587 -0.07894,2.45896 -0.133112,1.08021 -0.17164,2.14881 -0.206727,3.24169 -0.318391,4.07574 -0.18947,8.17875 -0.445998,12.25809 -0.0285,0.45321 -0.13822,0.89832 -0.176786,1.35078 -0.15355,1.80144 -0.11684,3.63953 -0.174887,5.44769 -0.01335,0.41577 -0.223691,2.4374 -0.09239,2.87794 0.01357,0.0455 0.08745,0.0575 0.09749,0.10395 0.08729,0.40382 -0.05858,0.80945 0.06192,1.21189 0.05831,0.19476 -0.124182,0.53283 -0.02251,0.7013 0.04208,0.0697 0.168485,-0.0221 0.244216,0.008 0.04417,0.0175 0.06499,0.0693 0.09749,0.10395 0.16679,0.039 0.332236,0.0842 0.500371,0.11689 1.288685,0.25046 2.527352,0.20372 3.827429,0.33874 0.768008,0.0798 1.528251,0.22527 2.286512,0.37101 0.362387,0.0696 0.70722,0.22195 1.072467,0.27459 0.353647,0.051 0.715227,0.005 1.071353,0.0344 1.731981,0.14087 3.430715,0.24339 5.170711,0.29925 2.948833,0.0947 5.909106,0.25637 8.859213,0.28441 1.866777,0.0177 3.733749,-0.0327 5.600555,-0.0183 3.83546,0.0296 7.677703,0.24648 11.51177,0.36957 1.488356,0.0478 2.976713,0.0956 4.465069,0.14334 1.150955,0.0369 2.308416,-0.0168 3.452866,0.11085 0.312675,0.0349 0.517959,0.12267 0.816777,0.13226"
       id="path12183" />
    <path
       style="fill:none;stroke:#000000;stroke-width:0.264583px;stroke-linecap:butt;stroke-linejoin:miter;stroke-opacity:1"
       d="m 74.789053,256.50027 c 0.0082,0.10355 -0.07411,0.27836 0.02461,0.31065 0.325231,0.10636 0.684012,0.022 1.026017,0.0329 8.977696,0.28822 -1.435343,1.4e-4 7.29647,0.10085 2.402113,0.0277 4.802071,0.15416 7.203109,0.23124 5.684206,0.18248 11.365691,0.49833 17.052611,0.54744 5.37622,0.0464 6.88665,-0.11929 12.72569,-0.1928 5.01427,-0.0631 4.62968,-0.052 8.15217,0.0611 11.40426,0.36611 -0.1806,0.10608 5.44624,0.0413 0.50441,-0.006 1.00836,0.0324 1.51255,0.0486 0.0969,0.003 0.20395,0.0526 0.29071,0.009 0.009,-0.004 0.005,-0.14754 0.005,-0.15842 0.006,-0.19827 -0.0182,-0.39999 0.0191,-0.59482 0.0482,-0.25179 0.18011,-0.4819 0.23521,-0.73228 0.32924,-1.49613 0.552,-3.01426 0.77958,-4.52919 0.28517,-1.89817 0.17516,-2.04613 0.41718,-4.10986 0.0868,-0.73997 0.24748,-1.47042 0.32405,-2.21152 0.046,-0.44503 0.0118,-0.8952 0.0431,-1.34151 0.13846,-1.97655 0.26884,-3.98535 0.45381,-5.95681 0.18204,-1.94032 0.60233,-3.85455 0.84937,-5.78324 0.19695,-1.53759 0.20247,-3.11035 0.25231,-4.66286"
       id="path12185" />
    <path
       style="fill:none;stroke:#000000;stroke-width:0.264583px;stroke-linecap:butt;stroke-linejoin:miter;stroke-opacity:1"
       d="m 135.92936,230.27669 c -0.0181,-1.81896 0.56826,-3.60097 1.32307,-5.2169 0.11338,-0.24274 0.14951,-0.74982 0.42937,-0.8833 0.17724,-0.0845 0.0452,0.0396 0.0894,0.0728 0.17989,0.13507 0.39495,0.21551 0.59337,0.32152 1.70111,0.90886 3.35095,1.69417 4.40779,3.39528"
       id="path12187" />
    <path
       style="fill:none;stroke:#000000;stroke-width:0.264583px;stroke-linecap:butt;stroke-linejoin:miter;stroke-opacity:1"
       d="m 119.73096,202.50318 c -0.19513,-1.02702 -0.92806,-0.20059 -1.33521,-0.43064 -0.0585,-0.033 0.0695,-0.17816 0.006,-0.20144 -0.65391,-0.24154 -1.52676,-0.0797 -2.20437,-0.27241 -2.91987,-0.83037 -5.96813,-0.99568 -9.09167,-1.09596 0.42455,1.23438 0.54655,1.32633 0.67389,2.48134 0.14616,1.32571 -0.25219,2.70111 -0.12934,4.02884 0.24629,2.66188 0.0947,5.41919 0.15361,8.11589 0.31396,14.37789 -0.82341,28.77225 -2.86844,42.9757 -0.50351,3.49707 -0.88653,7.03545 -1.3168,10.52306 -0.1537,1.24582 0.0575,2.61595 -0.32431,3.82093 -0.006,0.0185 -1.46017,0.15478 -1.92811,0.13975 -1.453278,-0.0466 -2.599143,0.36857 -4.061627,0.51813 -7.737841,0.79134 -15.539946,0.30314 -23.291548,0.0543 -8.525808,-0.2737 -17.045751,-0.48596 -25.545293,-1.14207 -9.910925,-0.76506 -19.76526,-2.33259 -29.672458,-3.11056 -0.915357,-0.0719 -1.837795,-0.0159 -2.753106,-0.0884 -3.673381,-0.29078 -7.392487,-0.74209 -11.0518055,-1.18256 -0.7811379,-0.094 -1.5466605,-0.31263 -2.3315029,-0.36776 -5.1783163,-0.36375 -10.4050461,-0.10284 -15.5808346,-0.50019 -1.227028,-0.0942 -2.440418,-0.33842 -3.668853,-0.41203 -3.46857,-0.20787 -6.946008,-0.22299 -10.419011,-0.33449 -2.358205,-0.0757 -4.799385,0.0341 -7.142881,-0.2293 -1.285523,-0.1445 -2.641723,-0.51215 -3.925197,-0.55335"
       id="path12189" />
    <path
       style="fill:none;stroke:#000000;stroke-width:0.264583px;stroke-linecap:butt;stroke-linejoin:miter;stroke-opacity:1"
       d="m -45.034094,249.74736 c -0.0177,0.55113 -0.03538,1.10225 -0.05308,1.65338 -0.07793,0.33358 -0.20244,0.65961 -0.233778,1.00074 -0.200628,2.18392 0.0227,4.41646 -0.211791,6.59722 -0.375015,3.48742 -0.950259,6.98285 -1.379045,10.45839 -0.154948,1.25595 0.07428,2.57754 -0.12287,3.82741 -0.04316,0.2736 -0.184152,0.52567 -0.227311,0.7993 -0.112459,0.71295 0.09292,1.5136 -0.07114,2.21586 -0.338323,1.44828 -0.171887,-0.92712 -0.233775,1.00074 -0.04045,1.26018 -0.282681,2.52407 -0.323956,3.80981 -0.0081,0.25307 0.08748,1.46965 -0.04925,1.53413 -0.189617,0.0895 -0.106575,-0.25558 -0.123148,-0.26733 -0.05411,-0.0383 -0.13258,-0.004 -0.198871,-0.006 -0.262123,-0.21005 -0.538473,-0.40352 -0.786369,-0.63019 -0.9589,-0.87682 -0.418859,-0.17565 -1.377759,-1.05248 -0.247896,-0.22667 -0.385638,-0.55012 -0.578459,-0.82516 -0.33782,-0.28797 -0.681408,-0.56928 -1.013462,-0.86386 -1.167347,-1.03558 -2.278677,-2.30558 -3.492127,-3.27806 -0.329745,-0.26424 -0.736439,-0.43669 -0.970703,-0.82674 -0.02906,-0.0484 0.398825,-1.14893 0.430276,-1.38626 0.168171,-1.26894 -0.01336,-2.58874 0.123967,-3.86154 0.19989,-1.85248 0.396931,-3.69737 0.616276,-5.54806 0.255037,-2.15181 -0.01622,-4.31495 0.408384,-6.43968 0.05667,-0.28358 -0.141303,-1.20621 0.04527,-1.41009 0.2457,-0.2685 1.286145,-0.29082 1.63467,-0.47103 1.399238,-0.72353 2.899476,-1.46382 4.250092,-2.26864 0.322312,-0.19206 2.759792,-1.83547 3.111206,-2.24812 0.372692,-0.43763 0.349417,-1.19309 0.826751,-1.51336 0.44766,-0.30036 1.106887,0.0635 1.612551,-0.12331 0.356479,-0.13172 0.532027,-0.54609 0.831636,-0.77989 0.384495,-0.30005 0.870037,-0.42516 1.234519,-0.76697"
       id="path12191" />
    <path
       style="fill:none;stroke:#000000;stroke-width:0.264583px;stroke-linecap:butt;stroke-linejoin:miter;stroke-opacity:1"
       d="m -38.077907,265.23995 c 0.702419,-0.0607 1.41105,-0.0708 2.107258,-0.18201 0.265364,-0.0424 -0.538038,-0.049 -0.80577,-0.0259 -2.223317,0.19206 -0.403913,0.46612 -2.813719,-0.29197 -1.454399,-0.45754 -2.941317,-0.28547 -4.41879,-0.54516 -0.209241,-0.0368 -0.38862,-0.18407 -0.597861,-0.22085 -0.648179,-0.11393 -1.603909,0.15492 -2.215861,-0.0711 -0.686983,-0.25377 -0.142754,-0.20624 -0.597861,-0.22085"
       id="path12193" />
    <path
       style="fill:none;stroke:#000000;stroke-width:0.264583px;stroke-linecap:butt;stroke-linejoin:miter;stroke-opacity:1"
       d="m -87.663384,213.52474 c 1.248804,3.39813 3.088,6.54455 4.608507,9.82397 1.105218,2.38373 1.94055,4.87949 2.928176,7.30884 0.0031,0.008 0.499824,1.40132 0.760499,1.43596 0.104976,0.0139 0.02397,-0.25853 0.124328,-0.29236 0.340286,-0.11472 0.669626,-0.26085 1.011476,-0.37083 1.83103,-0.58905 4.102319,-1.0864 5.996752,-1.22034 0.820243,-0.058 1.643732,0.0528 2.465599,0.0792 5.506487,0.17677 5.919462,-0.0733 10.15841,0.66121 1.091395,0.18911 2.164342,0.47843 3.25805,0.65367 2.998867,0.48051 6.039225,0.64219 9.037793,1.14466 1.144519,0.19179 2.32478,0.61592 3.47589,0.72825 1.179917,0.11514 2.36982,0.0761 3.55473,0.11411 0.190068,0.006 1.749811,0.25349 2.04629,0.0657 0.107108,-0.0678 0.0081,-0.25344 0.0122,-0.38016 0.01725,-0.53781 0.333423,-1.55843 0.467122,-1.98805 0.221869,-0.71295 0.583025,-1.37899 0.786582,-2.09739 2.144557,-7.56857 0.308959,-2.85651 2.599246,-8.78991 0.897313,-2.32465 2.026137,-4.53142 3.030394,-6.80584 0.07016,-0.15891 1.056603,-2.12833 0.915406,-2.45922 -0.0044,-0.0104 -0.892948,0.17298 -1.643121,0.1489 -1.360818,-0.0437 1.132525,0.004 -1.21512,0.16263 -0.804344,0.0544 -1.611537,-0.0517 -2.417305,-0.0776 -2.33622,-0.075 -4.723431,-0.0424 -7.054823,-0.22648 -5.440643,-0.42953 -0.846551,-0.25293 -3.723003,-0.34527 -0.777459,-0.0249 -2.286135,0.1865 -3.05667,-0.0981 -0.197247,-0.0729 -0.463037,-0.40763 -0.762749,-0.22614 -0.197196,0.11941 -1.022376,5.07307 -1.401894,5.63835 -0.03694,0.055 -0.03906,-0.13204 -0.08519,-0.17961 -0.235374,-0.24275 -0.5163,-0.43801 -0.791785,-0.63406 -0.354232,-0.25209 -0.712387,-0.50222 -1.095009,-0.7087 -0.946849,-0.51096 -2.521927,-0.94456 -3.303196,-1.77766 -0.9403,-1.00267 -1.627344,-2.30956 -2.524654,-3.31713 -0.0671,-0.0753 -1.615411,0.4272 -2.160178,0.48728 -4.095035,0.4516 -7.869907,0.53798 -11.995737,0.40553 -2.768806,-0.0889 -5.599758,-0.34009 -8.370858,-0.26873 -5.173843,0.13321 0.52556,0.25606 -3.683865,0.12093 -2.129317,-0.0684 -4.258636,-0.13672 -6.387952,-0.20508 -0.688737,-0.0221 -2.75495,-0.0884 -2.066213,-0.0663"
       id="path12195" />
    <path
       style="fill:none;stroke:#000000;stroke-width:0.264583px;stroke-linecap:butt;stroke-linejoin:miter;stroke-opacity:1"
       d="m -54.446672,231.00249 c 0.246817,2.45594 1.207103,4.34462 3.028834,5.96454 0.283995,0.25254 0.460462,0.62576 0.779899,0.83164 1.461587,0.94202 4.748567,2.16355 6.368541,2.62424 1.694302,0.48184 3.654994,0.58747 5.192226,1.57824 0.308859,0.19906 0.665993,0.61293 0.981342,0.8381 0.568119,0.40567 1.002123,1.44353 1.345425,2.05969 0.457025,0.82027 0.949576,1.63106 1.332492,2.46257 0.0979,0.21259 -0.02477,0.77171 -0.03217,1.00202 -0.01109,0.34523 0.05761,0.82137 -0.03697,1.15152 -0.60021,2.09522 -3.245784,5.55489 -5.228746,6.46179 -0.158773,0.0726 -0.428924,-0.0935 -0.586621,-0.0188 -0.928036,0.43918 -1.612169,0.38776 -2.430105,0.63942 -0.384815,0.1184 -1.575453,0.74091 -1.779654,0.73435"
       id="path12197" />
    <path
       style="fill:none;stroke:#000000;stroke-width:0.264583px;stroke-linecap:butt;stroke-linejoin:miter;stroke-opacity:1"
       d="m -55.61626,267.11658 c -0.590005,-0.047 -1.178176,-0.14745 -1.770012,-0.14094 -1.306129,0.0678 -2.612255,0.13565 -3.918381,0.20346 -0.57857,0.0965 -1.150099,0.25615 -1.735712,0.28956 -3.601844,0.20556 -7.208073,0.33851 -10.814701,0.42667 -12.712385,0.31067 -25.461928,-0.15706 -38.104284,-1.47518 -2.64203,-0.27546 -5.27588,-0.63881 -7.92443,-0.84238 -1.12716,-0.0866 -2.4488,0.33488 -3.37724,-0.31007 -0.0649,-0.0451 -0.015,-0.16126 0.008,-0.23699 0.14183,-0.47554 0.33258,-0.93682 0.45183,-1.41853 0.22653,-0.91502 0.4421,-1.83506 0.58436,-2.76692 0.59247,-3.88093 0.49284,-5.63502 0.62846,-9.85943 0.31953,-9.95329 0.0731,-19.88977 0.16307,-29.84793 0.0527,-5.83403 0.58519,-11.60495 0.77168,-17.41402"
       id="path12248" />
    <path
       style="fill:none;stroke:#000000;stroke-width:0.264583px;stroke-linecap:butt;stroke-linejoin:miter;stroke-opacity:1"
       d="m -110.45679,178.65255 c 0.0276,2.14088 -0.67518,4.6551 0.81054,6.47197 0.72603,0.88784 3.03038,0.40454 3.97909,0.19947 1.52951,-0.33062 0.95094,-0.22797 3.20718,-0.52675 2.3e-4,-3e-5 1.30339,-0.0707 1.40856,-0.16191 0.0492,-0.0427 0.15294,-1.6236 0.15779,-1.77455 0.0172,-0.53632 -0.11136,-0.98915 -0.15294,-1.51729 -0.01,-0.12084 0.0884,-1.46371 0.0484,-1.50644 -0.4167,-0.44479 -2.76023,-0.29447 -3.35363,-0.31352 -1.42817,-0.0459 -2.85633,-0.0917 -4.2845,-0.13755 -2.95448,-0.0948 -5.90896,-0.1897 -8.86345,-0.28454 -1.30367,-0.0419 -2.60733,-0.0837 -3.911,-0.12556 -0.71214,-0.0229 -1.4359,-0.19878 -2.13641,-0.0686 -0.13314,0.0247 0.0488,0.26701 0.0881,0.3966"
       id="path12250" />
    <path
       style="fill:none;stroke:#000000;stroke-width:0.264583px;stroke-linecap:butt;stroke-linejoin:miter;stroke-opacity:1"
       d="m -92.28158,177.54151 c 0.217024,0.36215 -0.10709,0.76618 -0.03659,1.13967 0.272415,1.44309 1.645407,2.84837 2.894243,3.4898 0.528751,0.27158 2.037151,0.26709 2.630649,0.28614 0.719256,0.0231 1.467628,0.0991 2.044387,-0.43849 0.03099,-0.0289 0.04313,-0.64301 0.02209,-0.68857 -0.05972,-0.1294 -0.194974,-0.20791 -0.292462,-0.31186 -0.945015,-1.00771 -2.299888,-1.38657 -3.668975,-1.34698 -0.564512,0.0163 -1.131302,0.0279 -1.691177,0.10193 -1.027617,0.13591 -1.48881,0.33656 -2.398739,0.30735"
       id="path12252" />
    <path
       style="fill:none;stroke:#000000;stroke-width:0.264583px;stroke-linecap:butt;stroke-linejoin:miter;stroke-opacity:1"
       d="m -71.438452,180.93429 c -0.447008,0.43339 -0.554873,0.97113 -0.620106,1.57402 -0.194699,1.7994 0.01463,3.5774 2.10979,3.76877 0.297159,0.0271 0.599869,0.0745 0.894728,0.0287 0.761005,-0.11821 1.650651,-0.72659 2.254943,-1.06435 0.595569,-0.33288 2.102382,-0.8485 2.408521,-1.67404 0.185528,-0.5003 -1.667817,-2.36576 -2.033207,-2.57332 -0.33324,-0.18929 -0.703569,-0.31846 -1.078222,-0.39917 -0.541811,-0.11671 -1.099179,-0.14861 -1.651949,-0.18894 -1.371598,-0.10007 -2.760147,-0.0886 -4.135692,-0.13277"
       id="path12254" />
    <path
       style="fill:none;stroke:#000000;stroke-width:0.264583px;stroke-linecap:butt;stroke-linejoin:miter;stroke-opacity:1"
       d="m -54.642943,180.60782 c -0.329472,1.50725 -0.228761,3.56974 1.023086,4.67552 0.896789,0.79214 2.717768,0.87501 3.797832,0.95433 2.301689,0.16906 1.666099,0.1248 3.921262,-0.39044 0.533525,-0.1219 0.710729,-0.10408 1.220833,-0.43144 1.417275,-0.90956 1.044601,-2.15922 -0.266928,-2.9918 -0.796263,-0.50549 -0.998476,-0.45228 -1.870051,-0.58915"
       id="path12256" />
    <path
       style="fill:none;stroke:#000000;stroke-width:0.264583px;stroke-linecap:butt;stroke-linejoin:miter;stroke-opacity:1"
       d="m -120.65362,203.72388 c -0.19166,-0.0632 -0.42965,-0.0495 -0.57499,-0.1895 -0.80881,-0.77913 -1.43958,-5.8108 -1.59781,-6.85543 -0.16761,-1.10651 -0.28931,-2.22004 -0.47645,-3.32343 -0.4668,-2.75219 -0.32294,-1.09123 -0.61675,-3.688 -1.03336,-9.13299 -0.0466,-0.54082 -0.71636,-7.57888 -0.18828,-1.97836 -0.42469,-3.91699 -0.51198,-5.90881 -0.0373,-0.85121 -0.0294,-1.70383 -0.0375,-2.55582 -0.006,-0.67747 0.12868,-1.38854 0.0662,-2.0634 -0.0906,-0.97955 -0.10681,0.18643 -0.0846,-0.50684 0.001,-0.0292 -0.0176,0.0625 -0.003,0.0877 0.008,0.0131 0.30878,0.37902 0.34458,0.40959 0.11423,0.0976 0.27164,0.13071 0.39641,0.21438 0.1395,0.0935 0.24197,0.24199 0.39319,0.3151 0.798,0.38579 3.86054,0.38676 4.68234,0.35196 2.56893,-0.10878 5.13019,-0.39703 7.69509,-0.54483 3.52288,-0.20301 3.26038,0.0121 7.26891,0.0585 5.263449,0.0608 4.943071,-0.11287 10.173994,-0.0687 1.161569,0.01 2.321542,0.0956 3.483039,0.11181 2.031817,0.0284 4.0641,0.002 6.096013,0.0222 6.199296,0.063 12.410403,0.39842 18.607349,0.59736 2.590755,0.0832 5.18151,0.16634 7.772265,0.24951 1.070851,0.0344 2.167131,0.13235 3.239098,0.10399 1.200356,-0.0318 2.380499,-0.16432 3.552455,-0.23303 0.237116,-0.0139 0.474876,-0.034 0.708278,-0.0781 0.07381,-0.0139 0.129596,-0.0921 0.204677,-0.0943 0.05062,-10e-4 -0.03647,0.0946 -0.0581,0.14036 -0.02521,0.0534 -0.0062,0.19268 -0.008,0.24996 -0.0086,0.26859 -0.03958,0.53739 -0.02588,0.80576 0.03122,0.61109 0.233003,1.38819 0.447638,1.95518 0.126347,0.33377 0.354531,0.62186 0.488977,0.95244 0.215971,0.53105 0.362884,0.95495 0.659862,1.43298 0.03462,0.0557 -0.04404,0.14302 -0.0063,0.19668 0.134541,0.19134 0.642165,1.05286 0.633775,1.31421"
       id="path12258" />
    <path
       style="fill:none;stroke:#000000;stroke-width:0.264583px;stroke-linecap:butt;stroke-linejoin:miter;stroke-opacity:1"
       d="m -51.298623,178.89128 c 0.49565,0.42111 0.901954,0.96214 1.330333,1.41894 0.225862,0.24084 0.508926,0.27522 0.792835,0.42875 0.414094,0.22393 -0.106283,-0.0104 0.09429,0.20345 0.08379,0.0893 0.586161,-0.0757 0.596834,-0.0817 0.430953,-0.24011 2.341351,-3.44172 2.540429,-3.80738 0.123192,-0.22628 0.202432,-0.47465 0.324987,-0.70128 0.08861,-0.16386 0.0075,-0.23508 -0.0011,0.0289"
       id="path12260" />
    <path
       style="fill:none;stroke:#000000;stroke-width:0.264583px;stroke-linecap:butt;stroke-linejoin:miter;stroke-opacity:1"
       d="m -54.771842,183.22256 c -1.183825,-0.62123 -2.436781,-0.58629 -3.734083,-0.62793"
       id="path12262" />
    <path
       style="fill:none;stroke:#000000;stroke-width:0.264583px;stroke-linecap:butt;stroke-linejoin:miter;stroke-opacity:1"
       d="m -72.51098,172.12502 c -0.02598,-0.15914 0.0021,-0.33746 -0.07792,-0.47741 -0.07397,-0.12925 -0.318895,0.0663 -0.405556,0.18738 -0.239382,0.33452 0.706469,1.20177 0.965165,1.31555 0.416036,0.18297 0.529868,-1.3248 0.04261,-1.2879 -0.194871,0.0148 -0.559985,0.0702 -0.524301,0.26238 0.0019,0.0102 0.830149,0.83784 0.988597,1.09288 0.504013,0.81127 0.795523,1.74571 1.023861,2.65432 0.188434,0.74981 0.301501,1.57681 0.430506,2.35011 0.0063,0.0376 0.167698,1.05763 0.178144,0.73221"
       id="path12264" />
    <path
       style="fill:none;stroke:#000000;stroke-width:0.264583px;stroke-linecap:butt;stroke-linejoin:miter;stroke-opacity:1"
       d="m -71.949396,178.17128 c 0.192106,0.30383 1.748541,2.2406 1.99526,2.0776 0.977265,-0.64566 1.634585,-1.6994 2.33213,-2.59884 0.04732,-0.061 0.581456,-0.7941 0.643395,-0.79875 0.0064,-5.3e-4 -0.07204,0.2231 -0.07281,0.24708"
       id="path12266" />
    <path
       style="fill:none;stroke:#000000;stroke-width:0.264583px;stroke-linecap:butt;stroke-linejoin:miter;stroke-opacity:1"
       d="m -71.438452,180.93429 c -0.308128,0.57826 -0.524361,1.21584 -0.924388,1.73479 -0.08203,0.10642 -0.269687,0.005 -0.402886,-0.0129 -1.111964,-0.14737 -2.162852,-0.39617 -3.293875,-0.43248 -0.117358,-0.004 -1.971529,-0.0633 -1.612759,-0.0518"
       id="path12268" />
    <path
       style="fill:none;stroke:#000000;stroke-width:0.264583px;stroke-linecap:butt;stroke-linejoin:miter;stroke-opacity:1"
       d="m -81.134851,176.94002 c -0.0016,1.0465 0.135189,2.07019 0.101325,3.12507 -0.0075,0.23501 -0.01508,0.47003 -0.02265,0.70505 -0.0011,0.0336 -0.03629,0.0948 -0.0032,0.10072 0.01474,0.003 0.230884,-0.21968 0.272243,-0.22852 0.565756,-0.12098 1.236316,-0.16196 1.818191,-0.14328"
       id="path12270" />
    <path
       style="fill:none;stroke:#000000;stroke-width:0.264583px;stroke-linecap:butt;stroke-linejoin:miter;stroke-opacity:1"
       d="m 38.859065,239.48881 c -1.582118,-6.69967 -1.442609,-3.08552 -3.092058,-4.58076 -0.333931,-0.30272 -0.921094,-0.10284 -1.311944,-0.32729 -0.401183,-0.23039 -1.392915,-0.033 -1.722017,-0.17687"
       id="path12272" />
    <path
       style="fill:none;stroke:#000000;stroke-width:0.264583px;stroke-linecap:butt;stroke-linejoin:miter;stroke-opacity:1"
       d="m 19.794044,232.48273 c 0.955554,0.88723 1.138282,0.77069 1.47677,1.70256 0.08538,0.23507 1.256368,2.46444 1.321477,2.53855 0.604221,0.68769 8.00126,-0.65191 8.703766,-0.86129 0.873273,-0.26027 1.587119,-0.23422 2.520137,-0.20427 0.349335,0.0112 1.338239,0.22837 1.047999,0.0336 -0.689282,-0.46246 -1.420765,-0.85869 -2.131147,-1.28803"
       id="path12274" />
    <path
       style="fill:none;stroke:#000000;stroke-width:0.264583px;stroke-linecap:butt;stroke-linejoin:miter;stroke-opacity:1"
       d="m -65.928726,352.33641 c -6.144786,-0.4436 -11.816228,4.04495 -15.729066,8.37655 -1.318181,1.45926 -0.944441,4.29379 -1.000308,6.03396 -0.271362,8.45285 9.634056,15.49244 17.349171,11.93959 4.643083,-2.13818 7.687781,-5.8405 10.814915,-9.75138 0.637839,-0.79772 1.583777,-1.48966 1.783929,-2.49124 0.231789,-1.15988 0.621827,-7.73176 0.284544,-8.86344 -1.474682,-4.94792 -9.446535,-5.99617 -13.503185,-5.24404 z"
       id="path12276" />
    <path
       style="fill:none;stroke:#000000;stroke-width:0.264583px;stroke-linecap:butt;stroke-linejoin:miter;stroke-opacity:1"
       d="m -5.0026611,352.93206 c -3.347685,-1.665 -7.3321419,0.17682 -9.6714249,2.91592 -2.442789,2.86027 -2.026229,8.45317 -1.158647,11.73223 1.200636,4.53784 6.4267843,10.62254 11.026702,11.76374 1.906273,0.47295 3.92610295,0.12605 5.8891543,0.18908 2.3312429,0.0748 5.5695378,0.7612 7.7358466,-0.57751 0.646576,-0.39957 1.108848,-1.03987 1.6632711,-1.5598 5.367137,-5.03327 5.614985,-10.02675 1.678415,-16.3631 -1.444595,-2.32524 -2.9028131,-4.0145 -5.1560578,-5.52805 -0.7808595,-0.52451 -1.8617313,-1.4442 -2.7684528,-1.70206 -2.8476739,-0.80984 -6.0941654,0.049 -9.2388065,-0.87045 z"
       id="path12278" />
    <path
       style="fill:none;stroke:#000000;stroke-width:0.264583px;stroke-linecap:butt;stroke-linejoin:miter;stroke-opacity:1"
       d="m 74.327081,350.38909 c -4.864457,-0.54083 -8.408644,2.13979 -12.201983,4.69913 -2.239811,1.51117 -4.045196,2.79477 -5.751845,4.92438 -2.113675,2.63747 -2.785666,8.92603 -0.777963,11.67069 0.580274,0.79327 1.42499,1.3662 2.016988,2.15077 1.778309,2.35678 3.163112,4.76298 5.847855,6.32685 0.762309,0.44405 1.695669,0.51422 2.488464,0.90122 0.707449,0.34536 1.269159,0.95118 1.983589,1.28185 3.938384,1.82283 9.382091,3.28666 13.593641,1.47485 3.836273,-1.65037 9.16727,-3.84932 10.968485,-7.96428 0.611896,-1.3979 0.500935,-3.04131 0.54787,-4.50334 0.180948,-5.6365 -0.705718,-11.37095 -5.303248,-15.0554 -0.718971,-0.57618 -1.011915,-1.40581 -1.962684,-1.67622 -0.681061,-0.19367 -1.706893,-0.0548 -2.417305,-0.0776"
       id="path12280" />
    <text
       xml:space="preserve"
       style="font-size:7.05556px;line-height:1.25;font-family:sans-serif;stroke-width:0.264583"
       x="-74.514618"
       y="368.55914"
       id="text14550"><tspan
         sodipodi:role="line"
         id="tspan14548"
         style="stroke-width:0.264583"
         x="-74.514618"
         y="368.55914">B                                 D                                     E</tspan></text>
    <path
       style="fill:none;stroke:#000000;stroke-width:0.264583px;stroke-linecap:butt;stroke-linejoin:miter;stroke-opacity:1"
       d="m 98.967093,379.56939 c -0.299355,3.13317 0.23136,6.45295 -0.708583,9.50945 -1.922407,6.25125 -8.681411,15.41444 -14.791976,18.54107 -4.497991,2.30148 -9.219776,4.187 -13.82617,6.30973 -1.197099,0.55166 -2.28143,1.33408 -3.492407,1.85457 -7.706852,3.31245 -17.845627,5.23833 -26.173578,5.43295 -4.433665,0.10364 -8.925597,-0.28651 -13.359524,-0.42886 -3.658555,-0.11745 -7.344564,0.11017 -10.975664,-0.35234 -8.3843523,-1.06802 -16.9925226,-2.69804 -25.1401442,-5.00896 -5.1723268,-1.46704 -5.1235098,-1.86026 -10.0278588,-3.45507 -4.90069,-1.59361 -9.889018,-3.09887 -14.689695,-5.00414 -3.601751,-1.42944 -6.640935,-3.76825 -10.251783,-5.10207 -2.933597,-1.08362 -5.158902,-2.99391 -7.928332,-4.28752 -1.290024,-0.60256 -2.759861,-0.95633 -3.977106,-1.74087 -3.675131,-2.36869 2.797651,0.8981 -1.962684,-1.67619 -0.11819,-0.0639 -0.268589,-0.009 -0.402884,-0.013 -0.264279,-0.14293 -0.548323,-0.25416 -0.792835,-0.42875 -1.432694,-1.02302 -2.449967,-3.02917 -3.496616,-4.14526 -0.609637,-0.65005 -1.590612,-0.70358 -1.559801,-1.66325"
       id="path15523" />
    <path
       style="fill:none;stroke:#000000;stroke-width:0.264583px;stroke-linecap:butt;stroke-linejoin:miter;stroke-opacity:1"
       d="m -60.703793,403.28633 c -3.026605,-4.26414 -8.692898,-8.40891 -9.816136,-13.6052 -0.121709,-0.56303 -1.700001,-2.83847 -1.094217,-3.44596 0.605835,-0.60751 1.657708,-0.44751 2.47055,-0.72212 5.143709,-1.73779 10.140431,-1.69096 15.496497,-1.519"
       id="path15525" />
    <path
       style="fill:none;stroke:#000000;stroke-width:0.264583px;stroke-linecap:butt;stroke-linejoin:miter;stroke-opacity:1"
       d="m 101.81458,364.38593 c 1.01672,-2.00723 2.00564,-4.60798 3.27785,-6.38966 0.67195,-0.94101 2.14206,-1.86523 2.91072,-2.72962 0.32192,-0.36203 0.45676,-0.89247 0.84457,-1.1828 0.34013,-0.25466 0.83565,-0.18634 1.22159,-0.36409 1.46382,-0.6741 3.2734,-2.30127 4.93808,-3.06787 2.83924,-1.30746 6.7699,-2.12019 9.86219,-2.53407 1.06541,-0.14261 2.15148,0.18782 3.22307,0.10345 2.59008,-0.20392 5.47035,-0.60582 8.10246,-0.14317 3.86944,0.68011 6.27173,3.39164 9.51401,5.14501"
       id="path15527" />
    <path
       style="fill:none;stroke:#000000;stroke-width:0.264583px;stroke-linecap:butt;stroke-linejoin:miter;stroke-opacity:1"
       d="m 150.00729,344.60341 c -0.0319,2.4307 1.0038,4.47117 1.80238,6.6697 0.40774,1.12252 5.15539,10.26427 6.12695,10.29546 0.54039,0.0175 -1.08079,-0.0347 -1.62118,-0.052 -2.00922,-0.0645 -4.01845,-0.12901 -6.02767,-0.19352 -2.23612,-0.0718 -8.1836,-1.04216 -10.25684,0.90213"
       id="path15529" />
    <path
       style="fill:none;stroke:#000000;stroke-width:0.264583px;stroke-linecap:butt;stroke-linejoin:miter;stroke-opacity:1"
       d="m 108.36424,343.40133 c -0.1527,1.99496 0.2774,3.92149 0.21418,5.89073"
       id="path15531" />
    <path
       style="fill:none;stroke:#000000;stroke-width:0.264583px;stroke-linecap:butt;stroke-linejoin:miter;stroke-opacity:1"
       d="m 108.36424,343.40133 c -1.66223,-0.16944 -1.33934,0.0241 -0.2538,-0.42032 0.67682,-0.27715 1.44377,-0.74911 2.18555,-0.90945 0.40763,-0.0881 0.81573,0.16655 1.14042,-0.13795"
       id="path15533" />
    <path
       style="fill:none;stroke:#000000;stroke-width:0.264583px;stroke-linecap:butt;stroke-linejoin:miter;stroke-opacity:1"
       d="m 108.16674,346.60821 c 0.7404,-0.46855 1.55451,-0.6133 2.40873,-0.58587"
       id="path15535" />
    <path
       style="fill:none;stroke:#000000;stroke-width:0.264583px;stroke-linecap:butt;stroke-linejoin:miter;stroke-opacity:1"
       d="m 113.45267,345.14782 c 0.1176,0.50218 0.16921,3.30025 0.86958,3.32274"
       id="path15537" />
    <path
       style="fill:none;stroke:#000000;stroke-width:0.264583px;stroke-linecap:butt;stroke-linejoin:miter;stroke-opacity:1"
       d="m 182.58616,354.07906 c -2.53287,-0.49146 -4.82039,0.74729 -7.29072,0.97587 -0.40137,0.0371 -0.82235,-0.15394 -1.20865,-0.0388 -0.75083,0.22379 -1.31683,0.87651 -2.05322,1.14398 -3.43048,1.24606 -7.45565,3.65533 -8.69337,6.98032 -0.33228,0.8926 -0.3701,5.60419 -0.20785,6.47427 0.11016,0.59071 0.62708,1.05008 0.75404,1.6374 0.11355,0.52533 -0.16529,1.08622 -0.0517,1.61155 0.35378,1.63661 0.79159,1.69784 1.521,2.87192 1.57463,2.53455 -0.0613,0.75846 1.521,2.87192 2.92192,3.90282 6.60168,5.03465 11.09968,6.00253 2.89557,0.62306 6.79885,1.11212 9.68215,-0.0925 3.08516,-1.28894 7.08748,-3.98488 8.71589,-6.99608 0.45194,-0.83571 0.27729,-1.88206 0.49342,-2.80726 0.67289,-2.88049 1.40498,-13.50732 -0.7245,-15.77805 -0.33139,-0.35338 -0.85139,-0.4912 -1.18278,-0.84458 -0.45956,-0.49006 -0.64012,-1.22108 -1.15692,-1.65034 -2.56104,-2.12725 -7.98442,-2.75381 -11.21743,-2.36215 -2.19439,0.26586 -2.69023,0.70578 -4.43168,0.64987"
       id="path15539" />
    <path
       style="fill:none;stroke:#000000;stroke-width:0.264583px;stroke-linecap:butt;stroke-linejoin:miter;stroke-opacity:1"
       d="m 180.64437,362.71234 c -0.011,0.34303 -0.0558,0.68665 -0.033,1.0291 0.16519,2.47996 0.0423,4.96204 -0.0378,7.45982 -0.0313,0.97644 -0.30912,2.27168 -0.10347,3.22307 0.34303,1.58689 0.30632,3.02083 0.26534,4.29752"
       id="path15547" />
    <path
       style="fill:none;stroke:#000000;stroke-width:0.264583px;stroke-linecap:butt;stroke-linejoin:miter;stroke-opacity:1"
       d="m 176.1439,362.12944 c 1.95893,-0.54264 3.98551,-0.27279 6.00134,-0.20807 0.47592,0.0153 1.1811,-0.10726 1.61153,0.0517 0.49389,0.18243 0.92684,0.2314 1.54371,0.2512"
       id="path15549" />
    <path
       style="fill:none;stroke:#000000;stroke-width:0.264583px;stroke-linecap:butt;stroke-linejoin:miter;stroke-opacity:1"
       d="m 180.73544,378.72185 c -0.80297,-0.0797 -1.60643,-0.15462 -2.40891,-0.2391 -0.25135,-0.0265 0.50524,0.0161 0.75786,0.0243 0.59068,0.019 1.04728,0.13954 1.65105,0.21479 0.8084,0.10073 4.72754,0.59902 5.00169,0.87164"
       id="path15551" />
    <path
       style="fill:none;stroke:#000000;stroke-width:0.264583px;stroke-linecap:butt;stroke-linejoin:miter;stroke-opacity:1"
       d="m 180.73544,378.72185 c -0.3872,5.49876 -0.92902,11.13523 -2.17616,16.47397 -0.55195,2.36275 -1.68368,4.7748 -2.24723,7.18724 -0.25086,1.0739 -0.35504,2.17239 -0.90924,3.1972 -0.75056,1.38793 -1.24172,1.73331 -2.11789,3.15841 -0.44507,0.72393 -0.423,1.67714 -0.88337,2.39144 -0.41177,0.63886 -1.16966,0.98182 -1.66327,1.5598 -1.98888,2.32878 -3.69729,4.63955 -5.95708,6.75875 -4.52326,4.24188 -9.18756,8.64029 -14.30407,12.15308 -1.6339,1.12176 -3.51633,1.83208 -5.23419,2.82049 -10.50425,6.04385 -21.72259,10.87382 -33.44519,13.96219 -6.39104,1.68373 -14.831002,1.44643 -21.416315,2.26833 -1.20138,0.14994 -2.353466,0.58343 -3.550107,0.76739 -1.838802,0.28269 -6.272004,0.4599 -7.953844,0.67649 -4.044854,0.52091 -5.542491,1.16467 -9.2858,1.28122 -6.06352,0.18883 -12.241874,-0.39299 -18.306267,-0.58767 -5.890506,-0.18912 -12.048048,0.14545 -17.879404,-0.57398 -2.28455,-0.28186 -4.513947,-1.16494 -6.810226,-1.42854 -10.033272,-1.15176 -19.4787814,-4.41455 -29.0568606,-7.56359 -5.9484197,-1.95572 -11.4990884,-4.12353 -16.9859244,-7.09689 -1.856154,-1.0059 -4.218033,-1.43241 -5.965658,-2.61134 -0.485697,-0.32763 -0.737529,-0.92538 -1.202316,-1.28206 -1.276887,-0.97991 -2.67553,-1.79356 -4.064034,-2.60763 -0.635577,-0.37264 -1.391089,-0.51131 -2.02348,-0.88934 -2.384256,-1.42523 -4.40282,-3.49107 -6.693821,-5.05447 -2.929723,-1.99927 -5.839516,-3.8822 -8.740484,-5.95363 -2.967252,-2.11878 -5.677995,-3.38254 -7.863673,-6.30195 -0.180062,-0.24051 -0.667163,-0.15584 -0.792835,-0.42876 -0.426497,-0.92614 -0.05702,-0.63547 -0.351469,-1.61448 -0.144743,-0.48125 -0.953199,-0.7824 -1.164805,-1.24206 -0.107471,-0.23347 0.206555,-0.58897 0.02474,-0.77063 -1.159336,-1.15824 -0.742799,-0.89665 -2.418959,-4.0845"
       id="path15553" />
    <path
       style="fill:none;stroke:#000000;stroke-width:0.264583px;stroke-linecap:butt;stroke-linejoin:miter;stroke-opacity:1"
       d="m -59.024906,423.52647 c 0.02,-0.62298 0.133014,-1.24994 0.06,-1.86896 -0.07039,-0.59674 -0.548883,-1.07262 -0.754033,-1.6374 -0.588278,-1.61957 -1.957848,-5.63618 -2.184496,-7.32951 -0.453077,-3.38503 -0.678627,-9.10363 -0.0024,-12.48741 0.530463,-2.65446 0.414684,-0.35465 0.454448,-1.59327 0.0028,-0.0862 -0.07672,0.20611 -0.0083,0.25866 0.228219,0.17528 0.515895,0.26016 0.750085,0.42738 0.644885,0.46048 1.248789,0.5656 1.98855,0.87043 1.728399,0.71223 3.587827,1.61893 5.159891,2.58545 0.886775,0.5452 2.343865,2.09174 3.531952,2.12987"
       id="path15555" />
    <path
       style="fill:none;stroke:#000000;stroke-width:0.264583px;stroke-linecap:butt;stroke-linejoin:miter;stroke-opacity:1"
       d="m -36.991282,342.65645 c 0.269428,13.27171 0.213588,26.57144 -0.213203,39.86585 -0.04256,1.32575 -0.74307,8.6646 -0.299644,9.33387 0.06835,0.10316 0.193334,-0.15452 0.289999,-0.23178"
       id="path15557" />
    <path
       style="fill:none;stroke:#000000;stroke-width:0.264583px;stroke-linecap:butt;stroke-linejoin:miter;stroke-opacity:1"
       d="m 34.509083,344.86995 c 0.107886,1.11149 -0.205103,2.23465 -0.107432,3.34642 0.700953,7.9787 1.657321,15.91998 1.791557,23.94765 0.07467,4.46561 -0.111066,8.85489 0.03477,13.31839 0.06474,1.98159 -0.845201,5.67224 0.600559,7.21391"
       id="path15559" />
    <path
       style="fill:none;stroke:#000000;stroke-width:0.264583px;stroke-linecap:butt;stroke-linejoin:miter;stroke-opacity:1"
       d="m 11.844316,349.74913 c 2.476628,-2.83742 4.034114,-6.64395 6.793256,-9.23144 0.353377,-0.33139 0.881142,-0.43559 1.23452,-0.76698 0.353377,-0.33139 0.456757,-0.89244 0.844569,-1.18279 0.340134,-0.25464 0.846099,-0.16521 1.221586,-0.36407 1.187394,-0.62886 2.126926,-1.65986 3.300675,-2.31383 0.483949,-0.26964 1.121266,-0.11943 1.62447,-0.35116 5.122912,-2.35913 10.529583,-3.55605 15.935123,-5.24933 8.369562,-2.62178 -0.727419,-0.22646 6.440575,-2.19136 2.154454,-0.59057 4.388747,-0.8704 6.530575,-1.50524 4.720979,-1.39935 9.217972,-3.22146 14.175984,-3.87382 1.014484,-0.13348 2.045618,0.13751 3.068105,0.0985 2.823972,-0.10771 5.600444,-0.85625 8.423529,-0.98319 7.754461,-0.3487 15.845512,-0.96777 23.612777,-0.0707 2.0619,0.23812 4.0794,0.82767 6.16381,1.02735 1.24089,0.11885 2.50945,-0.0925 3.73779,0.11999 0.71298,0.12332 1.3257,0.58028 1.98855,0.87043 0.93678,0.16478 1.86396,0.39899 2.81033,0.49429 5.4844,0.55232 10.87934,1.2542 16.34747,2.05145 3.12487,0.45561 6.73901,0.81952 9.73357,1.92566 0.56366,0.20823 1.022,0.64931 1.58567,0.85752 1.85252,0.68429 3.8207,0.83653 5.58864,1.7926 3.02595,1.6364 5.63951,3.93023 7.86367,6.30195 0.47516,0.50668 0.66882,1.54652 1.14398,2.05322 0.0919,0.098 0.29354,-0.0652 0.40289,0.013 1.29361,0.92368 1.31567,1.83943 2.99081,2.91166"
       id="path15561" />
    <path
       style="fill:none;stroke:#000000;stroke-width:0.264583px;stroke-linecap:butt;stroke-linejoin:miter;stroke-opacity:1"
       d="m 169.74048,332.83032 c -0.27927,1.94583 0.17681,3.01149 0.65238,4.80378 0.23079,0.86979 3.66462,11.40209 3.66189,11.40497 -0.26212,0.27678 -0.70423,-0.29805 -1.07213,-0.3978 -2.04755,-0.5552 -4.31054,-0.54168 -6.43321,-0.60984 -0.9648,-0.031 -1.9296,-0.0619 -2.8944,-0.0929 -0.6764,-0.0217 -2.2263,0.58227 -2.0292,-0.0651 0.66328,-2.17874 2.52095,-3.79368 3.78143,-5.69053"
       id="path15563" />
    <path
       style="fill:none;stroke:#000000;stroke-width:0.264583px;stroke-linecap:butt;stroke-linejoin:miter;stroke-opacity:1"
       d="m -33.165428,353.81363 c 1.898661,-4.38954 -0.470649,0.15333 2.009757,-2.55926 2.141296,-2.34172 3.678142,-5.49375 6.028642,-7.69802 0.938622,-0.88022 2.29468,-1.50606 3.300675,-2.31384 6.799719,-5.45978 14.4619098,-9.58188 22.23781764,-13.51274 1.68729666,-0.85297 3.46574476,-2.08005 5.18053516,-2.81083 3.0692392,-1.30805 6.6173282,-2.25303 9.6999902,-3.42464 1.68223,-0.63936 3.284957,-1.48156 4.982406,-2.07933 3.400255,-1.19745 2.911562,-0.52996 6.414091,-1.14932 3.020364,-0.53412 6.024544,-1.37584 9.053031,-1.84849 4.942385,-0.77134 3.575235,-0.0563 8.835059,-0.19518 2.009944,-0.0531 3.983421,-0.61976 5.993043,-0.68387 2.620795,-0.0836 5.240729,0.30472 7.862337,0.25241 6.10268,-0.12176 1.967452,-0.78621 10.325952,-1.29198 5.492797,-0.33237 11.353389,0.36446 16.881342,0.54194 7.181247,0.23053 14.37599,0.28197 21.48913,1.09315 1.63524,0.18648 3.30004,-0.0308 4.93496,0.15844 4.1386,0.47903 8.07085,1.73754 12.20973,2.08552 2.38282,0.20034 4.79115,-0.013 7.17,0.23019 5.21928,0.53321 10.38003,2.17062 15.51923,3.1455 4.91418,0.93218 10.32495,1.38753 15.16751,2.76741 2.92581,0.8337 1.89483,1.07601 4.87168,1.39189 1.00987,0.10716 2.04127,-0.0564 3.04504,0.0978 1.34476,0.20645 11.6901,2.59852 13.11061,3.73689 0.23445,0.18791 0.1715,0.59955 0.37702,0.8187 0.53593,0.5715 1.31708,0.84889 1.97562,1.27333 0.50507,0.32552 1.17462,0.41918 1.58566,0.85749 1.81046,1.93056 3.16992,5.25203 4.52603,6.99643 0.28014,0.36037 -0.44239,0.76266 0.25908,0.78518"
       id="path15565" />
    <path
       style="fill:none;stroke:#000000;stroke-width:0.264583px;stroke-linecap:butt;stroke-linejoin:miter;stroke-opacity:1"
       d="m 197.08125,328.65628 c -0.83867,2.05148 -0.21265,3.35193 0.2705,5.2745 0.57314,2.28063 1.19366,4.62595 2.60225,6.12796 0.0215,0.023 0.0174,0.8999 -0.0302,0.93996 -2.54308,2.14204 -6.1176,1.85171 -9.13438,2.5038 -1.12648,0.24353 -1.69277,0.34896 -2.82289,0.31269 -0.1327,-0.004 -0.49912,0.0734 -0.39809,-0.0127 1.38108,-1.17742 2.87472,-2.21602 4.31209,-3.32401"
       id="path15567" />
    <text
       xml:space="preserve"
       style="font-size:7.05556px;line-height:1.25;font-family:sans-serif;stroke-width:0.264583"
       x="7.4707208"
       y="589.37701"
       id="text27737"><tspan
         sodipodi:role="line"
         id="tspan27735"
         style="stroke-width:0.264583"
         x="7.4707208"
         y="589.37701">Fui beber agua e ja volto!!</tspan></text>
  </g>
</svg>
